{
   "results" : [
      {
         "address_components" : [
            {
               "long_name" : "48",
               "short_name" : "48",
               "types" : [ "street_number" ]
            },
            {
               "long_name" : "Thanon Rath Uthit",
               "short_name" : "Thanon Rath Uthit",
               "types" : [ "route" ]
            },
            {
               "long_name" : "Khwaeng Saen Saep",
               "short_name" : "Khwaeng Saen Saep",
               "types" : [ "sublocality_level_2", "sublocality", "political" ]
            },
            {
               "long_name" : "Khet Min Buri",
               "short_name" : "Khet Min Buri",
               "types" : [ "sublocality_level_1", "sublocality", "political" ]
            },
            {
               "long_name" : "Bangkok",
               "short_name" : "Bangkok",
               "types" : [ "locality", "political" ]
            },
            {
               "long_name" : "Krung Thep Maha Nakhon",
               "short_name" : "Krung Thep Maha Nakhon",
               "types" : [ "administrative_area_level_1", "political" ]
            },
            {
               "long_name" : "Thailand",
               "short_name" : "TH",
               "types" : [ "country", "political" ]
            },
            {
               "long_name" : "10510",
               "short_name" : "10510",
               "types" : [ "postal_code" ]
            }
         ],
         "formatted_address" : "48 Thanon Rath Uthit, Khwaeng Saen Saep, Khet Min Buri, Krung Thep Maha Nakhon 10510, Thailand",
         "geometry" : {
            "bounds" : {
               "northeast" : {
                  "lat" : 13.8210868,
                  "lng" : 100.7525467
               },
               "southwest" : {
                  "lat" : 13.8210711,
                  "lng" : 100.7525371
               }
            },
            "location" : {
               "lat" : 13.8210868,
               "lng" : 100.7525371
            },
            "location_type" : "RANGE_INTERPOLATED",
            "viewport" : {
               "northeast" : {
                  "lat" : 13.8224279302915,
                  "lng" : 100.7538908802915
               },
               "southwest" : {
                  "lat" : 13.8197299697085,
                  "lng" : 100.7511929197085
               }
            }
         },
         "partial_match" : true,
         "place_id" : "ErgBNDgg4LiW4LiZ4LiZIOC4o-C4suC4qeC4juC4o-C5jOC4reC4uOC4l-C4tOC4qCDguYHguILguKfguIcg4LmB4Liq4LiZ4LmB4Liq4LiaIOC5gOC4guC4lSDguKHguLXguJnguJrguLjguKPguLUg4LiB4Lij4Li44LiH4LmA4LiX4Lie4Lih4Lir4Liy4LiZ4LiE4LijIDEwNTEwIOC4m-C4o-C4sOC5gOC4l-C4qOC5hOC4l-C4og",
         "types" : [ "street_address" ]
      }
   ],
   "status" : "OK"
}
