{
   "results" : [
      {
         "address_components" : [
            {
               "long_name" : "Liang Talat Nongmon Road",
               "short_name" : "Liang Talat Nongmon Rd",
               "types" : [ "route" ]
            },
            {
               "long_name" : "Tambon Samet",
               "short_name" : "Tambon Samet",
               "types" : [ "locality", "political" ]
            },
            {
               "long_name" : "Amphoe Mueang Chon Buri",
               "short_name" : "Amphoe Mueang Chon Buri",
               "types" : [ "administrative_area_level_2", "political" ]
            },
            {
               "long_name" : "Chang Wat Chon Buri",
               "short_name" : "จ.ชลบุรี",
               "types" : [ "administrative_area_level_1", "political" ]
            },
            {
               "long_name" : "Thailand",
               "short_name" : "TH",
               "types" : [ "country", "political" ]
            },
            {
               "long_name" : "20000",
               "short_name" : "20000",
               "types" : [ "postal_code" ]
            }
         ],
         "formatted_address" : "Liang Talat Nongmon Rd, Tambon Samet, Amphoe Mueang Chon Buri, Chang Wat Chon Buri 20000, Thailand",
         "geometry" : {
            "bounds" : {
               "northeast" : {
                  "lat" : 13.2956657,
                  "lng" : 100.9439866
               },
               "southwest" : {
                  "lat" : 13.2939907,
                  "lng" : 100.9411804
               }
            },
            "location" : {
               "lat" : 13.2948315,
               "lng" : 100.9425627
            },
            "location_type" : "GEOMETRIC_CENTER",
            "viewport" : {
               "northeast" : {
                  "lat" : 13.2961771802915,
                  "lng" : 100.9439866
               },
               "southwest" : {
                  "lat" : 13.2934792197085,
                  "lng" : 100.9411804
               }
            }
         },
         "partial_match" : true,
         "place_id" : "ChIJWyO2iiW1AjERoJ4IL2gJiZw",
         "types" : [ "route" ]
      }
   ],
   "status" : "OK"
}
