{
   "results" : [
      {
         "address_components" : [
            {
               "long_name" : "7",
               "short_name" : "7",
               "types" : [ "street_number" ]
            },
            {
               "long_name" : "Soi Mu Ban Kittichai 4",
               "short_name" : "Soi Mu Ban Kittichai 4",
               "types" : [ "route" ]
            },
            {
               "long_name" : "Khwaeng Khu Fang Nuea",
               "short_name" : "Khwaeng Khu Fang Nuea",
               "types" : [ "sublocality_level_2", "sublocality", "political" ]
            },
            {
               "long_name" : "Khet Nong Chok",
               "short_name" : "Khet Nong Chok",
               "types" : [ "sublocality_level_1", "sublocality", "political" ]
            },
            {
               "long_name" : "Bangkok",
               "short_name" : "Bangkok",
               "types" : [ "locality", "political" ]
            },
            {
               "long_name" : "Krung Thep Maha Nakhon",
               "short_name" : "Krung Thep Maha Nakhon",
               "types" : [ "administrative_area_level_1", "political" ]
            },
            {
               "long_name" : "Thailand",
               "short_name" : "TH",
               "types" : [ "country", "political" ]
            },
            {
               "long_name" : "10530",
               "short_name" : "10530",
               "types" : [ "postal_code" ]
            }
         ],
         "formatted_address" : "7 Soi Mu Ban Kittichai 4, Khwaeng Khu Fang Nuea, Khet Nong Chok, Krung Thep Maha Nakhon 10530, Thailand",
         "geometry" : {
            "bounds" : {
               "northeast" : {
                  "lat" : 13.8777584,
                  "lng" : 100.8113275
               },
               "southwest" : {
                  "lat" : 13.8777402,
                  "lng" : 100.8113269
               }
            },
            "location" : {
               "lat" : 13.8777584,
               "lng" : 100.8113269
            },
            "location_type" : "RANGE_INTERPOLATED",
            "viewport" : {
               "northeast" : {
                  "lat" : 13.8790982802915,
                  "lng" : 100.8126761802915
               },
               "southwest" : {
                  "lat" : 13.8764003197085,
                  "lng" : 100.8099782197085
               }
            }
         },
         "partial_match" : true,
         "place_id" : "EtoBNyDguIvguK3guKIg4Lir4Lih4Li54LmI4Lia4LmJ4Liy4LiZ4LiB4Li04LiV4LiV4Li04LiK4Lix4LiiIDQg4LmB4LiC4Lin4LiHIOC4hOC4ueC5ieC4neC4seC5iOC4h-C5gOC4q-C4meC4t-C4rSDguYDguILguJUg4Lir4LiZ4Lit4LiH4LiI4Lit4LiBIOC4geC4o-C4uOC4h-C5gOC4l-C4nuC4oeC4q-C4suC4meC4hOC4oyAxMDUzMCDguJvguKPguLDguYDguJfguKjguYTguJfguKI",
         "types" : [ "street_address" ]
      },
      {
         "address_components" : [
            {
               "long_name" : "Soi Mu Ban Kittichai Villa Soi 7/3",
               "short_name" : "Soi Mu Ban Kittichai Villa Soi 7/3",
               "types" : [ "route" ]
            },
            {
               "long_name" : "Khwaeng Khu Fang Nuea",
               "short_name" : "Khwaeng Khu Fang Nuea",
               "types" : [ "sublocality_level_2", "sublocality", "political" ]
            },
            {
               "long_name" : "Khet Nong Chok",
               "short_name" : "Khet Nong Chok",
               "types" : [ "sublocality_level_1", "sublocality", "political" ]
            },
            {
               "long_name" : "Bangkok",
               "short_name" : "Bangkok",
               "types" : [ "locality", "political" ]
            },
            {
               "long_name" : "Krung Thep Maha Nakhon",
               "short_name" : "Krung Thep Maha Nakhon",
               "types" : [ "administrative_area_level_1", "political" ]
            },
            {
               "long_name" : "Thailand",
               "short_name" : "TH",
               "types" : [ "country", "political" ]
            },
            {
               "long_name" : "10530",
               "short_name" : "10530",
               "types" : [ "postal_code" ]
            }
         ],
         "formatted_address" : "Soi Mu Ban Kittichai Villa Soi 7/3, Khwaeng Khu Fang Nuea, Khet Nong Chok, Krung Thep Maha Nakhon 10530, Thailand",
         "geometry" : {
            "bounds" : {
               "northeast" : {
                  "lat" : 13.8585858,
                  "lng" : 100.7998083
               },
               "southwest" : {
                  "lat" : 13.8583571,
                  "lng" : 100.7992025
               }
            },
            "location" : {
               "lat" : 13.8584714,
               "lng" : 100.7995054
            },
            "location_type" : "GEOMETRIC_CENTER",
            "viewport" : {
               "northeast" : {
                  "lat" : 13.8598204302915,
                  "lng" : 100.8008543802915
               },
               "southwest" : {
                  "lat" : 13.8571224697085,
                  "lng" : 100.7981564197085
               }
            }
         },
         "partial_match" : true,
         "place_id" : "ChIJyVNWZlVlHTERn8uUlz_zqUM",
         "types" : [ "route" ]
      },
      {
         "address_components" : [
            {
               "long_name" : "Soi Mit Maitri 8/3",
               "short_name" : "Soi Mit Maitri 8/3",
               "types" : [ "route" ]
            },
            {
               "long_name" : "Khwaeng Nong Chok",
               "short_name" : "Khwaeng Nong Chok",
               "types" : [ "sublocality_level_2", "sublocality", "political" ]
            },
            {
               "long_name" : "Khet Nong Chok",
               "short_name" : "Khet Nong Chok",
               "types" : [ "sublocality_level_1", "sublocality", "political" ]
            },
            {
               "long_name" : "Bangkok",
               "short_name" : "Bangkok",
               "types" : [ "locality", "political" ]
            },
            {
               "long_name" : "Krung Thep Maha Nakhon",
               "short_name" : "Krung Thep Maha Nakhon",
               "types" : [ "administrative_area_level_1", "political" ]
            },
            {
               "long_name" : "Thailand",
               "short_name" : "TH",
               "types" : [ "country", "political" ]
            },
            {
               "long_name" : "10530",
               "short_name" : "10530",
               "types" : [ "postal_code" ]
            }
         ],
         "formatted_address" : "Soi Mit Maitri 8/3, Khwaeng Nong Chok, Khet Nong Chok, Krung Thep Maha Nakhon 10530, Thailand",
         "geometry" : {
            "bounds" : {
               "northeast" : {
                  "lat" : 13.8616719,
                  "lng" : 100.8353035
               },
               "southwest" : {
                  "lat" : 13.8576894,
                  "lng" : 100.8348802
               }
            },
            "location" : {
               "lat" : 13.8595886,
               "lng" : 100.8350857
            },
            "location_type" : "GEOMETRIC_CENTER",
            "viewport" : {
               "northeast" : {
                  "lat" : 13.8616719,
                  "lng" : 100.8364408302915
               },
               "southwest" : {
                  "lat" : 13.8576894,
                  "lng" : 100.8337428697085
               }
            }
         },
         "partial_match" : true,
         "place_id" : "ChIJr9E0FChwHTERfw7mtiBQmM4",
         "types" : [ "route" ]
      },
      {
         "address_components" : [
            {
               "long_name" : "Soi Mu Ban Kittichai Villa",
               "short_name" : "Soi Mu Ban Kittichai Villa",
               "types" : [ "route" ]
            },
            {
               "long_name" : "Khwaeng Khu Fang Nuea",
               "short_name" : "Khwaeng Khu Fang Nuea",
               "types" : [ "sublocality_level_2", "sublocality", "political" ]
            },
            {
               "long_name" : "Khet Nong Chok",
               "short_name" : "Khet Nong Chok",
               "types" : [ "sublocality_level_1", "sublocality", "political" ]
            },
            {
               "long_name" : "Bangkok",
               "short_name" : "Bangkok",
               "types" : [ "locality", "political" ]
            },
            {
               "long_name" : "Krung Thep Maha Nakhon",
               "short_name" : "Krung Thep Maha Nakhon",
               "types" : [ "administrative_area_level_1", "political" ]
            },
            {
               "long_name" : "Thailand",
               "short_name" : "TH",
               "types" : [ "country", "political" ]
            },
            {
               "long_name" : "10530",
               "short_name" : "10530",
               "types" : [ "postal_code" ]
            }
         ],
         "formatted_address" : "Soi Mu Ban Kittichai Villa, Khwaeng Khu Fang Nuea, Khet Nong Chok, Krung Thep Maha Nakhon 10530, Thailand",
         "geometry" : {
            "bounds" : {
               "northeast" : {
                  "lat" : 13.8672948,
                  "lng" : 100.8108808
               },
               "southwest" : {
                  "lat" : 13.8547529,
                  "lng" : 100.8094376
               }
            },
            "location" : {
               "lat" : 13.8603991,
               "lng" : 100.8105377
            },
            "location_type" : "GEOMETRIC_CENTER",
            "viewport" : {
               "northeast" : {
                  "lat" : 13.8672948,
                  "lng" : 100.8115081802915
               },
               "southwest" : {
                  "lat" : 13.8547529,
                  "lng" : 100.8088102197085
               }
            }
         },
         "partial_match" : true,
         "place_id" : "ChIJ70lDvwJwHTERUXxRaQfkSQo",
         "types" : [ "route" ]
      },
      {
         "address_components" : [
            {
               "long_name" : "Kittichai Villa",
               "short_name" : "Kittichai Villa",
               "types" : [ "point_of_interest", "establishment" ]
            },
            {
               "long_name" : "Nong Chok",
               "short_name" : "Nong Chok",
               "types" : [ "sublocality_level_1", "sublocality", "political" ]
            },
            {
               "long_name" : "Bangkok",
               "short_name" : "Bangkok",
               "types" : [ "locality", "political" ]
            },
            {
               "long_name" : "จังหวัด กรุงเทพมหานคร",
               "short_name" : "จังหวัด กรุงเทพมหานคร",
               "types" : [ "administrative_area_level_1", "political" ]
            },
            {
               "long_name" : "Thailand",
               "short_name" : "TH",
               "types" : [ "country", "political" ]
            },
            {
               "long_name" : "10530",
               "short_name" : "10530",
               "types" : [ "postal_code" ]
            }
         ],
         "formatted_address" : "Kittichai Villa, Bangkok, จังหวัด กรุงเทพมหานคร 10530, Thailand",
         "geometry" : {
            "location" : {
               "lat" : 13.8861724,
               "lng" : 100.8099874
            },
            "location_type" : "APPROXIMATE",
            "viewport" : {
               "northeast" : {
                  "lat" : 13.8875213802915,
                  "lng" : 100.8113363802915
               },
               "southwest" : {
                  "lat" : 13.8848234197085,
                  "lng" : 100.8086384197085
               }
            }
         },
         "partial_match" : true,
         "place_id" : "ChIJO5r8Z3JwHTER834fujPdl58",
         "types" : [ "point_of_interest", "establishment" ]
      },
      {
         "address_components" : [
            {
               "long_name" : "Soi Mu Ban Kittichai Villa Soi 7/8",
               "short_name" : "Soi Mu Ban Kittichai Villa Soi 7/8",
               "types" : [ "route" ]
            },
            {
               "long_name" : "Khwaeng Khu Fang Nuea",
               "short_name" : "Khwaeng Khu Fang Nuea",
               "types" : [ "sublocality_level_2", "sublocality", "political" ]
            },
            {
               "long_name" : "Khet Nong Chok",
               "short_name" : "Khet Nong Chok",
               "types" : [ "sublocality_level_1", "sublocality", "political" ]
            },
            {
               "long_name" : "Bangkok",
               "short_name" : "Bangkok",
               "types" : [ "locality", "political" ]
            },
            {
               "long_name" : "Krung Thep Maha Nakhon",
               "short_name" : "Krung Thep Maha Nakhon",
               "types" : [ "administrative_area_level_1", "political" ]
            },
            {
               "long_name" : "Thailand",
               "short_name" : "TH",
               "types" : [ "country", "political" ]
            },
            {
               "long_name" : "10530",
               "short_name" : "10530",
               "types" : [ "postal_code" ]
            }
         ],
         "formatted_address" : "Soi Mu Ban Kittichai Villa Soi 7/8, Khwaeng Khu Fang Nuea, Khet Nong Chok, Krung Thep Maha Nakhon 10530, Thailand",
         "geometry" : {
            "bounds" : {
               "northeast" : {
                  "lat" : 13.8602465,
                  "lng" : 100.7992081
               },
               "southwest" : {
                  "lat" : 13.8600241,
                  "lng" : 100.7984259
               }
            },
            "location" : {
               "lat" : 13.8601357,
               "lng" : 100.7988517
            },
            "location_type" : "GEOMETRIC_CENTER",
            "viewport" : {
               "northeast" : {
                  "lat" : 13.8614842802915,
                  "lng" : 100.8001659802915
               },
               "southwest" : {
                  "lat" : 13.8587863197085,
                  "lng" : 100.7974680197085
               }
            }
         },
         "partial_match" : true,
         "place_id" : "ChIJMxE1S1VlHTER24QFkpLYJhA",
         "types" : [ "route" ]
      },
      {
         "address_components" : [
            {
               "long_name" : "Soi Mu Ban Kittichai Villa 7",
               "short_name" : "Soi Mu Ban Kittichai Villa 7",
               "types" : [ "route" ]
            },
            {
               "long_name" : "Khwaeng Khu Fang Nuea",
               "short_name" : "Khwaeng Khu Fang Nuea",
               "types" : [ "sublocality_level_2", "sublocality", "political" ]
            },
            {
               "long_name" : "Khet Nong Chok",
               "short_name" : "Khet Nong Chok",
               "types" : [ "sublocality_level_1", "sublocality", "political" ]
            },
            {
               "long_name" : "Bangkok",
               "short_name" : "Bangkok",
               "types" : [ "locality", "political" ]
            },
            {
               "long_name" : "Krung Thep Maha Nakhon",
               "short_name" : "Krung Thep Maha Nakhon",
               "types" : [ "administrative_area_level_1", "political" ]
            },
            {
               "long_name" : "Thailand",
               "short_name" : "TH",
               "types" : [ "country", "political" ]
            },
            {
               "long_name" : "10530",
               "short_name" : "10530",
               "types" : [ "postal_code" ]
            }
         ],
         "formatted_address" : "Soi Mu Ban Kittichai Villa 7, Khwaeng Khu Fang Nuea, Khet Nong Chok, Krung Thep Maha Nakhon 10530, Thailand",
         "geometry" : {
            "bounds" : {
               "northeast" : {
                  "lat" : 13.8604224,
                  "lng" : 100.7988517
               },
               "southwest" : {
                  "lat" : 13.8601357,
                  "lng" : 100.7987494
               }
            },
            "location" : {
               "lat" : 13.8602791,
               "lng" : 100.7988006
            },
            "location_type" : "GEOMETRIC_CENTER",
            "viewport" : {
               "northeast" : {
                  "lat" : 13.8616280302915,
                  "lng" : 100.8001495302915
               },
               "southwest" : {
                  "lat" : 13.8589300697085,
                  "lng" : 100.7974515697085
               }
            }
         },
         "partial_match" : true,
         "place_id" : "ChIJwdv-tKp6HTERfqk62q55qdk",
         "types" : [ "route" ]
      },
      {
         "address_components" : [
            {
               "long_name" : "Kittichai Villa 2",
               "short_name" : "Kittichai Villa 2",
               "types" : [ "point_of_interest", "establishment" ]
            },
            {
               "long_name" : "Nong Chok",
               "short_name" : "Nong Chok",
               "types" : [ "sublocality_level_1", "sublocality", "political" ]
            },
            {
               "long_name" : "Bangkok",
               "short_name" : "Bangkok",
               "types" : [ "locality", "political" ]
            },
            {
               "long_name" : "จังหวัด กรุงเทพมหานคร",
               "short_name" : "จังหวัด กรุงเทพมหานคร",
               "types" : [ "administrative_area_level_1", "political" ]
            },
            {
               "long_name" : "Thailand",
               "short_name" : "TH",
               "types" : [ "country", "political" ]
            },
            {
               "long_name" : "10530",
               "short_name" : "10530",
               "types" : [ "postal_code" ]
            }
         ],
         "formatted_address" : "Kittichai Villa 2, Bangkok, จังหวัด กรุงเทพมหานคร 10530, Thailand",
         "geometry" : {
            "location" : {
               "lat" : 13.8600152,
               "lng" : 100.834934
            },
            "location_type" : "APPROXIMATE",
            "viewport" : {
               "northeast" : {
                  "lat" : 13.8613641802915,
                  "lng" : 100.8362829802915
               },
               "southwest" : {
                  "lat" : 13.8586662197085,
                  "lng" : 100.8335850197085
               }
            }
         },
         "partial_match" : true,
         "place_id" : "ChIJMb3M79dvHTERwdJ9jyWG4Q4",
         "types" : [ "point_of_interest", "establishment" ]
      },
      {
         "address_components" : [
            {
               "long_name" : "หมู่บ้านกิตติชัยวิลล่า 4",
               "short_name" : "หมู่บ้านกิตติชัยวิลล่า 4",
               "types" : [ "point_of_interest", "establishment" ]
            },
            {
               "long_name" : "Nong Chok",
               "short_name" : "Nong Chok",
               "types" : [ "sublocality_level_1", "sublocality", "political" ]
            },
            {
               "long_name" : "กรุงเทพมหานคร",
               "short_name" : "กรุงเทพมหานคร",
               "types" : [ "locality", "political" ]
            },
            {
               "long_name" : "จังหวัด กรุงเทพมหานคร",
               "short_name" : "จังหวัด กรุงเทพมหานคร",
               "types" : [ "administrative_area_level_1", "political" ]
            },
            {
               "long_name" : "Thailand",
               "short_name" : "TH",
               "types" : [ "country", "political" ]
            },
            {
               "long_name" : "10530",
               "short_name" : "10530",
               "types" : [ "postal_code" ]
            }
         ],
         "formatted_address" : "หมู่บ้านกิตติชัยวิลล่า 4 กรุงเทพมหานคร จังหวัด กรุงเทพมหานคร 10530, Thailand",
         "geometry" : {
            "location" : {
               "lat" : 13.8776064,
               "lng" : 100.8111819
            },
            "location_type" : "APPROXIMATE",
            "viewport" : {
               "northeast" : {
                  "lat" : 13.8789553802915,
                  "lng" : 100.8125308802915
               },
               "southwest" : {
                  "lat" : 13.8762574197085,
                  "lng" : 100.8098329197085
               }
            }
         },
         "partial_match" : true,
         "place_id" : "ChIJ_Sa39w1wHTERQIxCnUF7g3M",
         "types" : [ "point_of_interest", "establishment" ]
      },
      {
         "address_components" : [
            {
               "long_name" : "หมู่บ้านกิตติชัยวิลล่า 10",
               "short_name" : "หมู่บ้านกิตติชัยวิลล่า 10",
               "types" : [ "point_of_interest", "establishment" ]
            },
            {
               "long_name" : "Nong Chok",
               "short_name" : "Nong Chok",
               "types" : [ "sublocality_level_1", "sublocality", "political" ]
            },
            {
               "long_name" : "กรุงเทพมหานคร",
               "short_name" : "กรุงเทพมหานคร",
               "types" : [ "locality", "political" ]
            },
            {
               "long_name" : "จังหวัด กรุงเทพมหานคร",
               "short_name" : "จังหวัด กรุงเทพมหานคร",
               "types" : [ "administrative_area_level_1", "political" ]
            },
            {
               "long_name" : "Thailand",
               "short_name" : "TH",
               "types" : [ "country", "political" ]
            },
            {
               "long_name" : "10530",
               "short_name" : "10530",
               "types" : [ "postal_code" ]
            }
         ],
         "formatted_address" : "หมู่บ้านกิตติชัยวิลล่า 10 กรุงเทพมหานคร จังหวัด กรุงเทพมหานคร 10530, Thailand",
         "geometry" : {
            "location" : {
               "lat" : 13.8588228,
               "lng" : 100.8402394
            },
            "location_type" : "APPROXIMATE",
            "viewport" : {
               "northeast" : {
                  "lat" : 13.8601717802915,
                  "lng" : 100.8415883802915
               },
               "southwest" : {
                  "lat" : 13.8574738197085,
                  "lng" : 100.8388904197085
               }
            }
         },
         "partial_match" : true,
         "place_id" : "ChIJ4Qx5DypwHTER_nrdN4y_xk0",
         "types" : [ "point_of_interest", "establishment" ]
      },
      {
         "address_components" : [
            {
               "long_name" : "Soi Mu Ban Kittichai Villa Soi 7/7",
               "short_name" : "Soi Mu Ban Kittichai Villa Soi 7/7",
               "types" : [ "route" ]
            },
            {
               "long_name" : "Khwaeng Khu Fang Nuea",
               "short_name" : "Khwaeng Khu Fang Nuea",
               "types" : [ "sublocality_level_2", "sublocality", "political" ]
            },
            {
               "long_name" : "Khet Nong Chok",
               "short_name" : "Khet Nong Chok",
               "types" : [ "sublocality_level_1", "sublocality", "political" ]
            },
            {
               "long_name" : "Bangkok",
               "short_name" : "Bangkok",
               "types" : [ "locality", "political" ]
            },
            {
               "long_name" : "Krung Thep Maha Nakhon",
               "short_name" : "Krung Thep Maha Nakhon",
               "types" : [ "administrative_area_level_1", "political" ]
            },
            {
               "long_name" : "Thailand",
               "short_name" : "TH",
               "types" : [ "country", "political" ]
            },
            {
               "long_name" : "10530",
               "short_name" : "10530",
               "types" : [ "postal_code" ]
            }
         ],
         "formatted_address" : "Soi Mu Ban Kittichai Villa Soi 7/7, Khwaeng Khu Fang Nuea, Khet Nong Chok, Krung Thep Maha Nakhon 10530, Thailand",
         "geometry" : {
            "bounds" : {
               "northeast" : {
                  "lat" : 13.8599237,
                  "lng" : 100.7993231
               },
               "southwest" : {
                  "lat" : 13.8596898,
                  "lng" : 100.7986245
               }
            },
            "location" : {
               "lat" : 13.8598068,
               "lng" : 100.7989738
            },
            "location_type" : "GEOMETRIC_CENTER",
            "viewport" : {
               "northeast" : {
                  "lat" : 13.8611557302915,
                  "lng" : 100.8003227802915
               },
               "southwest" : {
                  "lat" : 13.8584577697085,
                  "lng" : 100.7976248197085
               }
            }
         },
         "partial_match" : true,
         "place_id" : "ChIJExQETFVlHTERRoAs3qBqGUI",
         "types" : [ "route" ]
      },
      {
         "address_components" : [
            {
               "long_name" : "Soi Mu Ban Kittichai Villa Soi 7/5",
               "short_name" : "Soi Mu Ban Kittichai Villa Soi 7/5",
               "types" : [ "route" ]
            },
            {
               "long_name" : "Khwaeng Khu Fang Nuea",
               "short_name" : "Khwaeng Khu Fang Nuea",
               "types" : [ "sublocality_level_2", "sublocality", "political" ]
            },
            {
               "long_name" : "Khet Nong Chok",
               "short_name" : "Khet Nong Chok",
               "types" : [ "sublocality_level_1", "sublocality", "political" ]
            },
            {
               "long_name" : "Bangkok",
               "short_name" : "Bangkok",
               "types" : [ "locality", "political" ]
            },
            {
               "long_name" : "Krung Thep Maha Nakhon",
               "short_name" : "Krung Thep Maha Nakhon",
               "types" : [ "administrative_area_level_1", "political" ]
            },
            {
               "long_name" : "Thailand",
               "short_name" : "TH",
               "types" : [ "country", "political" ]
            },
            {
               "long_name" : "10530",
               "short_name" : "10530",
               "types" : [ "postal_code" ]
            }
         ],
         "formatted_address" : "Soi Mu Ban Kittichai Villa Soi 7/5, Khwaeng Khu Fang Nuea, Khet Nong Chok, Krung Thep Maha Nakhon 10530, Thailand",
         "geometry" : {
            "bounds" : {
               "northeast" : {
                  "lat" : 13.8592425,
                  "lng" : 100.7995788
               },
               "southwest" : {
                  "lat" : 13.8590046,
                  "lng" : 100.798885
               }
            },
            "location" : {
               "lat" : 13.8591237,
               "lng" : 100.7992319
            },
            "location_type" : "GEOMETRIC_CENTER",
            "viewport" : {
               "northeast" : {
                  "lat" : 13.8604725302915,
                  "lng" : 100.8005808802915
               },
               "southwest" : {
                  "lat" : 13.8577745697085,
                  "lng" : 100.7978829197085
               }
            }
         },
         "partial_match" : true,
         "place_id" : "ChIJa5K_RFVlHTERzufBxaVnURE",
         "types" : [ "route" ]
      },
      {
         "address_components" : [
            {
               "long_name" : "Soi Mu Ban Kittichai Villa Soi 7/4",
               "short_name" : "Soi Mu Ban Kittichai Villa Soi 7/4",
               "types" : [ "route" ]
            },
            {
               "long_name" : "Khwaeng Khu Fang Nuea",
               "short_name" : "Khwaeng Khu Fang Nuea",
               "types" : [ "sublocality_level_2", "sublocality", "political" ]
            },
            {
               "long_name" : "Khet Nong Chok",
               "short_name" : "Khet Nong Chok",
               "types" : [ "sublocality_level_1", "sublocality", "political" ]
            },
            {
               "long_name" : "Bangkok",
               "short_name" : "Bangkok",
               "types" : [ "locality", "political" ]
            },
            {
               "long_name" : "Krung Thep Maha Nakhon",
               "short_name" : "Krung Thep Maha Nakhon",
               "types" : [ "administrative_area_level_1", "political" ]
            },
            {
               "long_name" : "Thailand",
               "short_name" : "TH",
               "types" : [ "country", "political" ]
            },
            {
               "long_name" : "10530",
               "short_name" : "10530",
               "types" : [ "postal_code" ]
            }
         ],
         "formatted_address" : "Soi Mu Ban Kittichai Villa Soi 7/4, Khwaeng Khu Fang Nuea, Khet Nong Chok, Krung Thep Maha Nakhon 10530, Thailand",
         "geometry" : {
            "bounds" : {
               "northeast" : {
                  "lat" : 13.8589167,
                  "lng" : 100.7996818
               },
               "southwest" : {
                  "lat" : 13.8587015,
                  "lng" : 100.7989984
               }
            },
            "location" : {
               "lat" : 13.8588091,
               "lng" : 100.7993401
            },
            "location_type" : "GEOMETRIC_CENTER",
            "viewport" : {
               "northeast" : {
                  "lat" : 13.8601580802915,
                  "lng" : 100.8006890802915
               },
               "southwest" : {
                  "lat" : 13.8574601197085,
                  "lng" : 100.7979911197085
               }
            }
         },
         "partial_match" : true,
         "place_id" : "ChIJHZYwXVVlHTERHEcxUJ1cspE",
         "types" : [ "route" ]
      },
      {
         "address_components" : [
            {
               "long_name" : "Soi Mu Ban Kittichai Villa Soi 7/6",
               "short_name" : "Soi Mu Ban Kittichai Villa Soi 7/6",
               "types" : [ "route" ]
            },
            {
               "long_name" : "Khwaeng Khu Fang Nuea",
               "short_name" : "Khwaeng Khu Fang Nuea",
               "types" : [ "sublocality_level_2", "sublocality", "political" ]
            },
            {
               "long_name" : "Khet Nong Chok",
               "short_name" : "Khet Nong Chok",
               "types" : [ "sublocality_level_1", "sublocality", "political" ]
            },
            {
               "long_name" : "Bangkok",
               "short_name" : "Bangkok",
               "types" : [ "locality", "political" ]
            },
            {
               "long_name" : "Krung Thep Maha Nakhon",
               "short_name" : "Krung Thep Maha Nakhon",
               "types" : [ "administrative_area_level_1", "political" ]
            },
            {
               "long_name" : "Thailand",
               "short_name" : "TH",
               "types" : [ "country", "political" ]
            },
            {
               "long_name" : "10530",
               "short_name" : "10530",
               "types" : [ "postal_code" ]
            }
         ],
         "formatted_address" : "Soi Mu Ban Kittichai Villa Soi 7/6, Khwaeng Khu Fang Nuea, Khet Nong Chok, Krung Thep Maha Nakhon 10530, Thailand",
         "geometry" : {
            "bounds" : {
               "northeast" : {
                  "lat" : 13.8595776,
                  "lng" : 100.7994552
               },
               "southwest" : {
                  "lat" : 13.8593321,
                  "lng" : 100.79879
               }
            },
            "location" : {
               "lat" : 13.8594552,
               "lng" : 100.7991226
            },
            "location_type" : "GEOMETRIC_CENTER",
            "viewport" : {
               "northeast" : {
                  "lat" : 13.8608038302915,
                  "lng" : 100.8004715802915
               },
               "southwest" : {
                  "lat" : 13.8581058697085,
                  "lng" : 100.7977736197085
               }
            }
         },
         "partial_match" : true,
         "place_id" : "ChIJUaZxT1VlHTERP-XmCl62YK0",
         "types" : [ "route" ]
      },
      {
         "address_components" : [
            {
               "long_name" : "Soi Mu Ban Kittichai Villa Soi 7/2",
               "short_name" : "Soi Mu Ban Kittichai Villa Soi 7/2",
               "types" : [ "route" ]
            },
            {
               "long_name" : "Khwaeng Khu Fang Nuea",
               "short_name" : "Khwaeng Khu Fang Nuea",
               "types" : [ "sublocality_level_2", "sublocality", "political" ]
            },
            {
               "long_name" : "Khet Nong Chok",
               "short_name" : "Khet Nong Chok",
               "types" : [ "sublocality_level_1", "sublocality", "political" ]
            },
            {
               "long_name" : "Bangkok",
               "short_name" : "Bangkok",
               "types" : [ "locality", "political" ]
            },
            {
               "long_name" : "Krung Thep Maha Nakhon",
               "short_name" : "Krung Thep Maha Nakhon",
               "types" : [ "administrative_area_level_1", "political" ]
            },
            {
               "long_name" : "Thailand",
               "short_name" : "TH",
               "types" : [ "country", "political" ]
            },
            {
               "long_name" : "10530",
               "short_name" : "10530",
               "types" : [ "postal_code" ]
            }
         ],
         "formatted_address" : "Soi Mu Ban Kittichai Villa Soi 7/2, Khwaeng Khu Fang Nuea, Khet Nong Chok, Krung Thep Maha Nakhon 10530, Thailand",
         "geometry" : {
            "bounds" : {
               "northeast" : {
                  "lat" : 13.8582438,
                  "lng" : 100.7999307
               },
               "southwest" : {
                  "lat" : 13.858015,
                  "lng" : 100.7993004
               }
            },
            "location" : {
               "lat" : 13.8581294,
               "lng" : 100.7996155
            },
            "location_type" : "GEOMETRIC_CENTER",
            "viewport" : {
               "northeast" : {
                  "lat" : 13.8594783802915,
                  "lng" : 100.8009645302915
               },
               "southwest" : {
                  "lat" : 13.8567804197085,
                  "lng" : 100.7982665697085
               }
            }
         },
         "partial_match" : true,
         "place_id" : "ChIJ5zOIZFVlHTER0__YvL50NQg",
         "types" : [ "route" ]
      },
      {
         "address_components" : [
            {
               "long_name" : "Soi Mu Ban Kittichai Villa Soi 7/1",
               "short_name" : "Soi Mu Ban Kittichai Villa Soi 7/1",
               "types" : [ "route" ]
            },
            {
               "long_name" : "Khwaeng Khu Fang Nuea",
               "short_name" : "Khwaeng Khu Fang Nuea",
               "types" : [ "sublocality_level_2", "sublocality", "political" ]
            },
            {
               "long_name" : "Khet Nong Chok",
               "short_name" : "Khet Nong Chok",
               "types" : [ "sublocality_level_1", "sublocality", "political" ]
            },
            {
               "long_name" : "Bangkok",
               "short_name" : "Bangkok",
               "types" : [ "locality", "political" ]
            },
            {
               "long_name" : "Krung Thep Maha Nakhon",
               "short_name" : "Krung Thep Maha Nakhon",
               "types" : [ "administrative_area_level_1", "political" ]
            },
            {
               "long_name" : "Thailand",
               "short_name" : "TH",
               "types" : [ "country", "political" ]
            },
            {
               "long_name" : "10530",
               "short_name" : "10530",
               "types" : [ "postal_code" ]
            }
         ],
         "formatted_address" : "Soi Mu Ban Kittichai Villa Soi 7/1, Khwaeng Khu Fang Nuea, Khet Nong Chok, Krung Thep Maha Nakhon 10530, Thailand",
         "geometry" : {
            "bounds" : {
               "northeast" : {
                  "lat" : 13.8579128,
                  "lng" : 100.8000545
               },
               "southwest" : {
                  "lat" : 13.8577062,
                  "lng" : 100.7994737
               }
            },
            "location" : {
               "lat" : 13.8578021,
               "lng" : 100.7997653
            },
            "location_type" : "GEOMETRIC_CENTER",
            "viewport" : {
               "northeast" : {
                  "lat" : 13.8591584802915,
                  "lng" : 100.8011130802915
               },
               "southwest" : {
                  "lat" : 13.8564605197085,
                  "lng" : 100.7984151197085
               }
            }
         },
         "partial_match" : true,
         "place_id" : "ChIJRfuRfFVlHTERzyS31DpIGw0",
         "types" : [ "route" ]
      }
   ],
   "status" : "OK"
}
