{
   "results" : [
      {
         "address_components" : [
            {
               "long_name" : "Soi 8",
               "short_name" : "Soi 8",
               "types" : [ "route" ]
            },
            {
               "long_name" : "Khwaeng Khlong Toei",
               "short_name" : "Khwaeng Khlong Toei",
               "types" : [ "sublocality_level_2", "sublocality", "political" ]
            },
            {
               "long_name" : "Khet Khlong Toei",
               "short_name" : "Khet Khlong Toei",
               "types" : [ "sublocality_level_1", "sublocality", "political" ]
            },
            {
               "long_name" : "Bangkok",
               "short_name" : "Bangkok",
               "types" : [ "locality", "political" ]
            },
            {
               "long_name" : "Krung Thep Maha Nakhon",
               "short_name" : "Krung Thep Maha Nakhon",
               "types" : [ "administrative_area_level_1", "political" ]
            },
            {
               "long_name" : "Thailand",
               "short_name" : "TH",
               "types" : [ "country", "political" ]
            },
            {
               "long_name" : "10110",
               "short_name" : "10110",
               "types" : [ "postal_code" ]
            }
         ],
         "formatted_address" : "Soi 8 - Chumchon Talat Tha Ruea Khlong Toei, Khwaeng Khlong Toei, Khet Khlong Toei, Krung Thep Maha Nakhon 10110, Thailand",
         "geometry" : {
            "location" : {
               "lat" : 13.7171758,
               "lng" : 100.5618905
            },
            "location_type" : "APPROXIMATE",
            "viewport" : {
               "northeast" : {
                  "lat" : 13.7185247802915,
                  "lng" : 100.5632394802915
               },
               "southwest" : {
                  "lat" : 13.7158268197085,
                  "lng" : 100.5605415197085
               }
            }
         },
         "partial_match" : true,
         "place_id" : "EqQC4LiL4Lit4LiiIOC4iuC4uOC4oeC4iuC4meC4leC4peC4suC4lOC4l-C5iOC4suC5gOC4o-C4t-C4reC4hOC4peC4reC4h-C5gOC4leC4oiAtIOC4iuC4uOC4oeC4iuC4meC4leC4peC4suC4lOC4l-C5iOC4suC5gOC4o-C4t-C4reC4hOC4peC4reC4h-C5gOC4leC4oiDguYHguILguKfguIcg4LiE4Lil4Lit4LiH4LmA4LiV4LiiIOC5gOC4guC4lSDguITguKXguK3guIfguYDguJXguKIg4LiB4Lij4Li44LiH4LmA4LiX4Lie4Lih4Lir4Liy4LiZ4LiE4LijIDEwMTEwIOC4m-C4o-C4sOC5gOC4l-C4qOC5hOC4l-C4og",
         "types" : [ "intersection" ]
      }
   ],
   "status" : "OK"
}
