{
   "results" : [
      {
         "address_components" : [
            {
               "long_name" : "ตลาด",
               "short_name" : "ตลาด",
               "types" : [ "premise" ]
            },
            {
               "long_name" : "ตำบล คลองสาม",
               "short_name" : "ตำบล คลองสาม",
               "types" : [ "locality", "political" ]
            },
            {
               "long_name" : "อำเภอ คลองหลวง",
               "short_name" : "อ. คลองหลวง",
               "types" : [ "administrative_area_level_2", "political" ]
            },
            {
               "long_name" : "ปทุมธานี",
               "short_name" : "จ.ปทุมธานี",
               "types" : [ "administrative_area_level_1", "political" ]
            },
            {
               "long_name" : "Thailand",
               "short_name" : "TH",
               "types" : [ "country", "political" ]
            },
            {
               "long_name" : "12120",
               "short_name" : "12120",
               "types" : [ "postal_code" ]
            }
         ],
         "formatted_address" : "ตลาด ตำบล คลองสาม อำเภอ คลองหลวง ปทุมธานี 12120, Thailand",
         "geometry" : {
            "bounds" : {
               "northeast" : {
                  "lat" : 14.028983,
                  "lng" : 100.6631257
               },
               "southwest" : {
                  "lat" : 14.0288481,
                  "lng" : 100.6628967
               }
            },
            "location" : {
               "lat" : 14.0289199,
               "lng" : 100.6629937
            },
            "location_type" : "ROOFTOP",
            "viewport" : {
               "northeast" : {
                  "lat" : 14.0302645302915,
                  "lng" : 100.6643601802915
               },
               "southwest" : {
                  "lat" : 14.0275665697085,
                  "lng" : 100.6616622197085
               }
            }
         },
         "partial_match" : true,
         "place_id" : "ChIJsRMatJ9_HTERlpvMUY7q0T8",
         "types" : [ "premise" ]
      }
   ],
   "status" : "OK"
}
