{
   "results" : [
      {
         "address_components" : [
            {
               "long_name" : "Raewadee Soi 11",
               "short_name" : "Raewadee Soi 11",
               "types" : [ "route" ]
            },
            {
               "long_name" : "Tambon Talat Kwan",
               "short_name" : "Tambon Talat Kwan",
               "types" : [ "sublocality_level_1", "sublocality", "political" ]
            },
            {
               "long_name" : "Nonthaburi",
               "short_name" : "Nonthaburi",
               "types" : [ "locality", "political" ]
            },
            {
               "long_name" : "Amphoe Mueang Nonthaburi",
               "short_name" : "Amphoe Mueang Nonthaburi",
               "types" : [ "administrative_area_level_2", "political" ]
            },
            {
               "long_name" : "Chang Wat Nonthaburi",
               "short_name" : "จ.นนทบุรี",
               "types" : [ "administrative_area_level_1", "political" ]
            },
            {
               "long_name" : "Thailand",
               "short_name" : "TH",
               "types" : [ "country", "political" ]
            },
            {
               "long_name" : "11000",
               "short_name" : "11000",
               "types" : [ "postal_code" ]
            }
         ],
         "formatted_address" : "Raewadee Soi 11, Tambon Talat Kwan, Amphoe Mueang Nonthaburi, Chang Wat Nonthaburi 11000, Thailand",
         "geometry" : {
            "bounds" : {
               "northeast" : {
                  "lat" : 13.8581383,
                  "lng" : 100.5121285
               },
               "southwest" : {
                  "lat" : 13.8548103,
                  "lng" : 100.5119664
               }
            },
            "location" : {
               "lat" : 13.8564902,
               "lng" : 100.5120629
            },
            "location_type" : "GEOMETRIC_CENTER",
            "viewport" : {
               "northeast" : {
                  "lat" : 13.8581383,
                  "lng" : 100.5133964302915
               },
               "southwest" : {
                  "lat" : 13.8548103,
                  "lng" : 100.5106984697085
               }
            }
         },
         "partial_match" : true,
         "place_id" : "ChIJe4XJpEab4jARXKO3i2r2vcc",
         "types" : [ "route" ]
      }
   ],
   "status" : "OK"
}
