{
   "results" : [
      {
         "address_components" : [
            {
               "long_name" : "Soi Chom Thian 16",
               "short_name" : "Soi Chom Thian 16",
               "types" : [ "route" ]
            },
            {
               "long_name" : "Na Kluea",
               "short_name" : "Na Kluea",
               "types" : [ "sublocality_level_1", "sublocality", "political" ]
            },
            {
               "long_name" : "Muang Pattaya",
               "short_name" : "Muang Pattaya",
               "types" : [ "locality", "political" ]
            },
            {
               "long_name" : "Amphoe Bang Lamung",
               "short_name" : "อ.บางละมุง",
               "types" : [ "administrative_area_level_2", "political" ]
            },
            {
               "long_name" : "Chang Wat Chon Buri",
               "short_name" : "จ.ชลบุรี",
               "types" : [ "administrative_area_level_1", "political" ]
            },
            {
               "long_name" : "Thailand",
               "short_name" : "TH",
               "types" : [ "country", "political" ]
            },
            {
               "long_name" : "20150",
               "short_name" : "20150",
               "types" : [ "postal_code" ]
            }
         ],
         "formatted_address" : "Soi Chom Thian 16, Muang Pattaya, Amphoe Bang Lamung, Chang Wat Chon Buri 20150, Thailand",
         "geometry" : {
            "bounds" : {
               "northeast" : {
                  "lat" : 12.8737346,
                  "lng" : 100.8910037
               },
               "southwest" : {
                  "lat" : 12.8723923,
                  "lng" : 100.8886037
               }
            },
            "location" : {
               "lat" : 12.873044,
               "lng" : 100.8897584
            },
            "location_type" : "GEOMETRIC_CENTER",
            "viewport" : {
               "northeast" : {
                  "lat" : 12.8744124302915,
                  "lng" : 100.8911526802915
               },
               "southwest" : {
                  "lat" : 12.8717144697085,
                  "lng" : 100.8884547197085
               }
            }
         },
         "partial_match" : true,
         "place_id" : "ChIJp6-lm6CWAjERxdIcilimGTI",
         "types" : [ "route" ]
      }
   ],
   "status" : "OK"
}
