{
   "results" : [
      {
         "address_components" : [
            {
               "long_name" : "Chachoengsao",
               "short_name" : "จ.ฉะเชิงเทรา",
               "types" : [ "administrative_area_level_1", "political" ]
            },
            {
               "long_name" : "Thailand",
               "short_name" : "TH",
               "types" : [ "country", "political" ]
            }
         ],
         "formatted_address" : "Chachoengsao, Thailand",
         "geometry" : {
            "bounds" : {
               "northeast" : {
                  "lat" : 13.976755,
                  "lng" : 101.9902707
               },
               "southwest" : {
                  "lat" : 13.1786652,
                  "lng" : 100.8489619
               }
            },
            "location" : {
               "lat" : 13.6904194,
               "lng" : 101.0779596
            },
            "location_type" : "APPROXIMATE",
            "viewport" : {
               "northeast" : {
                  "lat" : 13.976755,
                  "lng" : 101.9902707
               },
               "southwest" : {
                  "lat" : 13.1786652,
                  "lng" : 100.8489619
               }
            }
         },
         "partial_match" : true,
         "place_id" : "ChIJSwiDq83dHDERliGiGrQ_H7g",
         "types" : [ "administrative_area_level_1", "political" ]
      }
   ],
   "status" : "OK"
}
