{
   "results" : [
      {
         "address_components" : [
            {
               "long_name" : "บ้านไผ่",
               "short_name" : "บ้านไผ่",
               "types" : [ "neighborhood", "political" ]
            },
            {
               "long_name" : "ตำบล ตูมใต้",
               "short_name" : "ตำบล ตูมใต้",
               "types" : [ "locality", "political" ]
            },
            {
               "long_name" : "อำเภอ กุมภวาปี",
               "short_name" : "อ.กุมภวาปี",
               "types" : [ "administrative_area_level_2", "political" ]
            },
            {
               "long_name" : "อุดรธานี",
               "short_name" : "จ.อุดรธานี",
               "types" : [ "administrative_area_level_1", "political" ]
            },
            {
               "long_name" : "Thailand",
               "short_name" : "TH",
               "types" : [ "country", "political" ]
            },
            {
               "long_name" : "41110",
               "short_name" : "41110",
               "types" : [ "postal_code" ]
            }
         ],
         "formatted_address" : "บ้านไผ่ ตำบล ตูมใต้ อำเภอ กุมภวาปี อุดรธานี 41110, Thailand",
         "geometry" : {
            "location" : {
               "lat" : 17.1088886,
               "lng" : 102.9772572
            },
            "location_type" : "APPROXIMATE",
            "viewport" : {
               "northeast" : {
                  "lat" : 17.1195525,
                  "lng" : 102.9932646
               },
               "southwest" : {
                  "lat" : 17.0982241,
                  "lng" : 102.9612498
               }
            }
         },
         "partial_match" : true,
         "place_id" : "ChIJuVpiYzIOIzERuptnuONq3sM",
         "types" : [ "neighborhood", "political" ]
      }
   ],
   "status" : "OK"
}
