{
   "results" : [
      {
         "address_components" : [
            {
               "long_name" : "Phuket",
               "short_name" : "จ.ภูเก็ต",
               "types" : [ "administrative_area_level_1", "political" ]
            },
            {
               "long_name" : "Thailand",
               "short_name" : "TH",
               "types" : [ "country", "political" ]
            }
         ],
         "formatted_address" : "Phuket, Thailand",
         "geometry" : {
            "bounds" : {
               "northeast" : {
                  "lat" : 8.1999143,
                  "lng" : 98.4618483
               },
               "southwest" : {
                  "lat" : 7.4621565,
                  "lng" : 98.2580093
               }
            },
            "location" : {
               "lat" : 7.9519331,
               "lng" : 98.33808839999999
            },
            "location_type" : "APPROXIMATE",
            "viewport" : {
               "northeast" : {
                  "lat" : 8.1999143,
                  "lng" : 98.4618483
               },
               "southwest" : {
                  "lat" : 7.733149399999999,
                  "lng" : 98.2580093
               }
            }
         },
         "partial_match" : true,
         "place_id" : "ChIJT1JixOIxUDARIbo9BoWayuk",
         "types" : [ "administrative_area_level_1", "political" ]
      }
   ],
   "status" : "OK"
}
