{
   "results" : [
      {
         "address_components" : [
            {
               "long_name" : "Soi Mu Ban Uea Athon Chachoengsao",
               "short_name" : "Soi Mu Ban Uea Athon Chachoengsao",
               "types" : [ "route" ]
            },
            {
               "long_name" : "Tambon Phanom Sarakham",
               "short_name" : "Tambon Phanom Sarakham",
               "types" : [ "locality", "political" ]
            },
            {
               "long_name" : "Amphoe Phanom Sarakham",
               "short_name" : "อ.พนมสารคาม",
               "types" : [ "administrative_area_level_2", "political" ]
            },
            {
               "long_name" : "Chang Wat Chachoengsao",
               "short_name" : "จ.ฉะเชิงเทรา",
               "types" : [ "administrative_area_level_1", "political" ]
            },
            {
               "long_name" : "Thailand",
               "short_name" : "TH",
               "types" : [ "country", "political" ]
            },
            {
               "long_name" : "24120",
               "short_name" : "24120",
               "types" : [ "postal_code" ]
            }
         ],
         "formatted_address" : "Soi Mu Ban Uea Athon Chachoengsao, Tambon Phanom Sarakham, Amphoe Phanom Sarakham, Chang Wat Chachoengsao 24120, Thailand",
         "geometry" : {
            "bounds" : {
               "northeast" : {
                  "lat" : 13.7516719,
                  "lng" : 101.3424455
               },
               "southwest" : {
                  "lat" : 13.747271,
                  "lng" : 101.3390092
               }
            },
            "location" : {
               "lat" : 13.7496342,
               "lng" : 101.3410688
            },
            "location_type" : "GEOMETRIC_CENTER",
            "viewport" : {
               "northeast" : {
                  "lat" : 13.7516719,
                  "lng" : 101.3424455
               },
               "southwest" : {
                  "lat" : 13.747271,
                  "lng" : 101.3390092
               }
            }
         },
         "partial_match" : true,
         "place_id" : "ChIJTYeWLv8dHTERjIuGP63UAyw",
         "types" : [ "route" ]
      }
   ],
   "status" : "OK"
}
