{
   "results" : [
      {
         "address_components" : [
            {
               "long_name" : "Praisanee",
               "short_name" : "Praisanee",
               "types" : [ "route" ]
            },
            {
               "long_name" : "Tambon Pak Phraek",
               "short_name" : "Tambon Pak Phraek",
               "types" : [ "locality", "political" ]
            },
            {
               "long_name" : "Amphoe Mueang Kanchanaburi",
               "short_name" : "Amphoe Mueang Kanchanaburi",
               "types" : [ "administrative_area_level_2", "political" ]
            },
            {
               "long_name" : "Chang Wat Kanchanaburi",
               "short_name" : "จ.กาญจนบุรี",
               "types" : [ "administrative_area_level_1", "political" ]
            },
            {
               "long_name" : "Thailand",
               "short_name" : "TH",
               "types" : [ "country", "political" ]
            },
            {
               "long_name" : "71000",
               "short_name" : "71000",
               "types" : [ "postal_code" ]
            }
         ],
         "formatted_address" : "Praisanee, Tambon Pak Phraek, Amphoe Mueang Kanchanaburi, Chang Wat Kanchanaburi 71000, Thailand",
         "geometry" : {
            "bounds" : {
               "northeast" : {
                  "lat" : 14.0169155,
                  "lng" : 99.5430909
               },
               "southwest" : {
                  "lat" : 14.0143444,
                  "lng" : 99.54043019999999
               }
            },
            "location" : {
               "lat" : 14.0156303,
               "lng" : 99.54177759999999
            },
            "location_type" : "GEOMETRIC_CENTER",
            "viewport" : {
               "northeast" : {
                  "lat" : 14.0169789302915,
                  "lng" : 99.5431095302915
               },
               "southwest" : {
                  "lat" : 14.0142809697085,
                  "lng" : 99.54041156970848
               }
            }
         },
         "partial_match" : true,
         "place_id" : "ChIJozuAhq104zAR80vQj0wpBNg",
         "types" : [ "route" ]
      }
   ],
   "status" : "OK"
}
