{
   "results" : [
      {
         "address_components" : [
            {
               "long_name" : "15/11",
               "short_name" : "15/11",
               "types" : [ "street_number" ]
            },
            {
               "long_name" : "ประชาอุทิศ 54",
               "short_name" : "ประชาอุทิศ 54",
               "types" : [ "route" ]
            },
            {
               "long_name" : "Khwaeng Bang Mot",
               "short_name" : "Khwaeng Bang Mot",
               "types" : [ "sublocality_level_2", "sublocality", "political" ]
            },
            {
               "long_name" : "Khet Thung Khru",
               "short_name" : "Khet Thung Khru",
               "types" : [ "sublocality_level_1", "sublocality", "political" ]
            },
            {
               "long_name" : "Bangkok",
               "short_name" : "Bangkok",
               "types" : [ "locality", "political" ]
            },
            {
               "long_name" : "Krung Thep Maha Nakhon",
               "short_name" : "Krung Thep Maha Nakhon",
               "types" : [ "administrative_area_level_1", "political" ]
            },
            {
               "long_name" : "Thailand",
               "short_name" : "TH",
               "types" : [ "country", "political" ]
            },
            {
               "long_name" : "10140",
               "short_name" : "10140",
               "types" : [ "postal_code" ]
            }
         ],
         "formatted_address" : "15/11 ประชาอุทิศ 54 Khwaeng Bang Mot, Khet Thung Khru, Krung Thep Maha Nakhon 10140, Thailand",
         "geometry" : {
            "location" : {
               "lat" : 13.6387089,
               "lng" : 100.4875547
            },
            "location_type" : "ROOFTOP",
            "viewport" : {
               "northeast" : {
                  "lat" : 13.6400578802915,
                  "lng" : 100.4889036802915
               },
               "southwest" : {
                  "lat" : 13.6373599197085,
                  "lng" : 100.4862057197085
               }
            }
         },
         "partial_match" : true,
         "place_id" : "ChIJC6A5eKmj4jARik2V_A3_KvE",
         "types" : [ "street_address" ]
      }
   ],
   "status" : "OK"
}
