{
   "results" : [
      {
         "address_components" : [
            {
               "long_name" : "Soi 8",
               "short_name" : "Soi 8",
               "types" : [ "route" ]
            },
            {
               "long_name" : "Tambon Bang Khen",
               "short_name" : "ต.บางเขน",
               "types" : [ "sublocality_level_1", "sublocality", "political" ]
            },
            {
               "long_name" : "Nonthaburi",
               "short_name" : "Nonthaburi",
               "types" : [ "locality", "political" ]
            },
            {
               "long_name" : "Amphoe Mueang Nonthaburi",
               "short_name" : "Amphoe Mueang Nonthaburi",
               "types" : [ "administrative_area_level_2", "political" ]
            },
            {
               "long_name" : "Chang Wat Nonthaburi",
               "short_name" : "จ.นนทบุรี",
               "types" : [ "administrative_area_level_1", "political" ]
            },
            {
               "long_name" : "Thailand",
               "short_name" : "TH",
               "types" : [ "country", "political" ]
            },
            {
               "long_name" : "11000",
               "short_name" : "11000",
               "types" : [ "postal_code" ]
            }
         ],
         "formatted_address" : "Soi 8 - Soi 7, Tambon Bang Khen, Amphoe Mueang Nonthaburi, Chang Wat Nonthaburi 11000, Thailand",
         "geometry" : {
            "location" : {
               "lat" : 13.86231,
               "lng" : 100.5371508
            },
            "location_type" : "APPROXIMATE",
            "viewport" : {
               "northeast" : {
                  "lat" : 13.8636589802915,
                  "lng" : 100.5384997802915
               },
               "southwest" : {
                  "lat" : 13.8609610197085,
                  "lng" : 100.5358018197085
               }
            }
         },
         "partial_match" : true,
         "place_id" : "EqUB4LiL4Lit4LiiIDggLSDguIvguK3guKIgNyDguJXguLPguJrguKUg4Lia4Liy4LiH4LmA4LiC4LiZIOC4reC4s-C5gOC4oOC4reC5gOC4oeC4t-C4reC4h-C4meC4meC4l-C4muC4uOC4o-C4tSDguJnguJnguJfguJrguLjguKPguLUgMTEwMDAg4Lib4Lij4Liw4LmA4LiX4Lio4LmE4LiX4Lii",
         "types" : [ "intersection" ]
      }
   ],
   "status" : "OK"
}
