{
   "results" : [
      {
         "address_components" : [
            {
               "long_name" : "ซอย 11",
               "short_name" : "ซอย 11",
               "types" : [ "route" ]
            },
            {
               "long_name" : "Khwaeng Don Mueang",
               "short_name" : "Khwaeng Don Mueang",
               "types" : [ "sublocality_level_2", "sublocality", "political" ]
            },
            {
               "long_name" : "Khet Don Mueang",
               "short_name" : "Khet Don Mueang",
               "types" : [ "sublocality_level_1", "sublocality", "political" ]
            },
            {
               "long_name" : "Bangkok",
               "short_name" : "Bangkok",
               "types" : [ "locality", "political" ]
            },
            {
               "long_name" : "Krung Thep Maha Nakhon",
               "short_name" : "Krung Thep Maha Nakhon",
               "types" : [ "administrative_area_level_1", "political" ]
            },
            {
               "long_name" : "Thailand",
               "short_name" : "TH",
               "types" : [ "country", "political" ]
            },
            {
               "long_name" : "10210",
               "short_name" : "10210",
               "types" : [ "postal_code" ]
            }
         ],
         "formatted_address" : "ซอย 11 Khwaeng Don Mueang, Khet Don Mueang, Krung Thep Maha Nakhon 10210, Thailand",
         "geometry" : {
            "bounds" : {
               "northeast" : {
                  "lat" : 13.9281306,
                  "lng" : 100.5639015
               },
               "southwest" : {
                  "lat" : 13.9278039,
                  "lng" : 100.5637085
               }
            },
            "location" : {
               "lat" : 13.9279673,
               "lng" : 100.563805
            },
            "location_type" : "GEOMETRIC_CENTER",
            "viewport" : {
               "northeast" : {
                  "lat" : 13.9293162302915,
                  "lng" : 100.5651539802915
               },
               "southwest" : {
                  "lat" : 13.9266182697085,
                  "lng" : 100.5624560197085
               }
            }
         },
         "partial_match" : true,
         "place_id" : "ChIJz0_rA7CD4jAR3ZRwmd5o-f4",
         "types" : [ "route" ]
      }
   ],
   "status" : "OK"
}
