{
   "results" : [
      {
         "address_components" : [
            {
               "long_name" : "7",
               "short_name" : "7",
               "types" : [ "street_number" ]
            },
            {
               "long_name" : "Thanon Visadekul",
               "short_name" : "Thanon Visadekul",
               "types" : [ "route" ]
            },
            {
               "long_name" : "Tambon Thap Thiang",
               "short_name" : "Tambon Thap Thiang",
               "types" : [ "sublocality_level_1", "sublocality", "political" ]
            },
            {
               "long_name" : "Trang",
               "short_name" : "Trang",
               "types" : [ "locality", "political" ]
            },
            {
               "long_name" : "Amphoe Mueang Trang",
               "short_name" : "Amphoe Mueang Trang",
               "types" : [ "administrative_area_level_2", "political" ]
            },
            {
               "long_name" : "Chang Wat Trang",
               "short_name" : "จ.ตรัง",
               "types" : [ "administrative_area_level_1", "political" ]
            },
            {
               "long_name" : "Thailand",
               "short_name" : "TH",
               "types" : [ "country", "political" ]
            },
            {
               "long_name" : "92000",
               "short_name" : "92000",
               "types" : [ "postal_code" ]
            }
         ],
         "formatted_address" : "7 Thanon Visadekul, Tambon Thap Thiang, Amphoe Mueang Trang, Chang Wat Trang 92000, Thailand",
         "geometry" : {
            "bounds" : {
               "northeast" : {
                  "lat" : 7.559224699999999,
                  "lng" : 99.60799469999999
               },
               "southwest" : {
                  "lat" : 7.5592131,
                  "lng" : 99.60798009999999
               }
            },
            "location" : {
               "lat" : 7.5592131,
               "lng" : 99.60798009999999
            },
            "location_type" : "RANGE_INTERPOLATED",
            "viewport" : {
               "northeast" : {
                  "lat" : 7.560567880291502,
                  "lng" : 99.6093363802915
               },
               "southwest" : {
                  "lat" : 7.557869919708497,
                  "lng" : 99.60663841970847
               }
            }
         },
         "partial_match" : true,
         "place_id" : "EqcBNyDguJbguJnguJkg4Lin4Li04LmA4Lio4Lip4LiB4Li44LilIOC4leC4s-C4muC4pSDguJfguLHguJrguYDguJfguLXguYjguKLguIcg4Lit4Liz4LmA4Lig4Lit4LmA4Lih4Li34Lit4LiH4LiV4Lij4Lix4LiHIOC4leC4o-C4seC4hyA5MjAwMCDguJvguKPguLDguYDguJfguKjguYTguJfguKI",
         "types" : [ "street_address" ]
      }
   ],
   "status" : "OK"
}
