{
   "results" : [
      {
         "address_components" : [
            {
               "long_name" : "Ubon Ratchathani",
               "short_name" : "จ.อุบลราชธานี",
               "types" : [ "administrative_area_level_1", "political" ]
            },
            {
               "long_name" : "Thailand",
               "short_name" : "TH",
               "types" : [ "country", "political" ]
            }
         ],
         "formatted_address" : "Ubon Ratchathani, Thailand",
         "geometry" : {
            "bounds" : {
               "northeast" : {
                  "lat" : 16.0980447,
                  "lng" : 105.6361068
               },
               "southwest" : {
                  "lat" : 14.2095638,
                  "lng" : 104.3716245
               }
            },
            "location" : {
               "lat" : 15.2286861,
               "lng" : 104.8564217
            },
            "location_type" : "APPROXIMATE",
            "viewport" : {
               "northeast" : {
                  "lat" : 16.0980447,
                  "lng" : 105.6361068
               },
               "southwest" : {
                  "lat" : 14.2095638,
                  "lng" : 104.3716245
               }
            }
         },
         "partial_match" : true,
         "place_id" : "ChIJzfzghbQuFDERx0XQjV54hjc",
         "types" : [ "administrative_area_level_1", "political" ]
      }
   ],
   "status" : "OK"
}
