{
   "results" : [
      {
         "address_components" : [
            {
               "long_name" : "11",
               "short_name" : "11",
               "types" : [ "street_number" ]
            },
            {
               "long_name" : "Chok Chai 4 Soi 54",
               "short_name" : "Chok Chai 4 Soi 54",
               "types" : [ "route" ]
            },
            {
               "long_name" : "Khwaeng Lat Phrao",
               "short_name" : "Khwaeng Lat Phrao",
               "types" : [ "sublocality_level_2", "sublocality", "political" ]
            },
            {
               "long_name" : "Khet Lat Phrao",
               "short_name" : "Khet Lat Phrao",
               "types" : [ "sublocality_level_1", "sublocality", "political" ]
            },
            {
               "long_name" : "Bangkok",
               "short_name" : "Bangkok",
               "types" : [ "locality", "political" ]
            },
            {
               "long_name" : "Krung Thep Maha Nakhon",
               "short_name" : "Krung Thep Maha Nakhon",
               "types" : [ "administrative_area_level_1", "political" ]
            },
            {
               "long_name" : "Thailand",
               "short_name" : "TH",
               "types" : [ "country", "political" ]
            },
            {
               "long_name" : "10230",
               "short_name" : "10230",
               "types" : [ "postal_code" ]
            }
         ],
         "formatted_address" : "11 Chok Chai 4 Soi 54, Khwaeng Lat Phrao, Khet Lat Phrao, Krung Thep Maha Nakhon 10230, Thailand",
         "geometry" : {
            "bounds" : {
               "northeast" : {
                  "lat" : 13.8176425,
                  "lng" : 100.6054938
               },
               "southwest" : {
                  "lat" : 13.8176342,
                  "lng" : 100.6054771
               }
            },
            "location" : {
               "lat" : 13.8176425,
               "lng" : 100.6054771
            },
            "location_type" : "RANGE_INTERPOLATED",
            "viewport" : {
               "northeast" : {
                  "lat" : 13.8189873302915,
                  "lng" : 100.6068344302915
               },
               "southwest" : {
                  "lat" : 13.8162893697085,
                  "lng" : 100.6041364697085
               }
            }
         },
         "partial_match" : true,
         "place_id" : "ErcBMTEg4LmC4LiK4LiE4LiK4Lix4LiiIDQg4LiL4Lit4LiiIDU0IOC5geC4guC4p-C4hyDguKXguLLguJTguJ7guKPguYnguLLguKcg4LmA4LiC4LiVIOC4peC4suC4lOC4nuC4o-C5ieC4suC4pyDguIHguKPguLjguIfguYDguJfguJ7guKHguKvguLLguJnguITguKMgMTAyMzAg4Lib4Lij4Liw4LmA4LiX4Lio4LmE4LiX4Lii",
         "types" : [ "street_address" ]
      }
   ],
   "status" : "OK"
}
