{
   "results" : [
      {
         "address_components" : [
            {
               "long_name" : "Pisist Payabal",
               "short_name" : "Pisist Payabal",
               "types" : [ "route" ]
            },
            {
               "long_name" : "Tambon Tha Taphao",
               "short_name" : "Tambon Tha Taphao",
               "types" : [ "locality", "political" ]
            },
            {
               "long_name" : "Amphoe Mueang Chumphon",
               "short_name" : "อ.เมืองชุมพร",
               "types" : [ "administrative_area_level_2", "political" ]
            },
            {
               "long_name" : "Chang Wat Chumphon",
               "short_name" : "จ.ชุมพร",
               "types" : [ "administrative_area_level_1", "political" ]
            },
            {
               "long_name" : "Thailand",
               "short_name" : "TH",
               "types" : [ "country", "political" ]
            },
            {
               "long_name" : "86000",
               "short_name" : "86000",
               "types" : [ "postal_code" ]
            }
         ],
         "formatted_address" : "Pisist Payabal, Tambon Tha Taphao, Amphoe Mueang Chumphon, Chang Wat Chumphon 86000, Thailand",
         "geometry" : {
            "bounds" : {
               "northeast" : {
                  "lat" : 10.4991595,
                  "lng" : 99.18599139999999
               },
               "southwest" : {
                  "lat" : 10.4966091,
                  "lng" : 99.18527279999999
               }
            },
            "location" : {
               "lat" : 10.4978671,
               "lng" : 99.18567139999999
            },
            "location_type" : "GEOMETRIC_CENTER",
            "viewport" : {
               "northeast" : {
                  "lat" : 10.4992332802915,
                  "lng" : 99.1869810802915
               },
               "southwest" : {
                  "lat" : 10.4965353197085,
                  "lng" : 99.18428311970848
               }
            }
         },
         "partial_match" : true,
         "place_id" : "ChIJ1y-SC7Kq-DAR-j3jXVIbKeI",
         "types" : [ "route" ]
      }
   ],
   "status" : "OK"
}
