{
   "results" : [
      {
         "address_components" : [
            {
               "long_name" : "Big C Supercenter",
               "short_name" : "Big C Supercenter",
               "types" : [ "premise" ]
            },
            {
               "long_name" : "Anusawari",
               "short_name" : "Anusawari",
               "types" : [ "sublocality_level_2", "sublocality", "political" ]
            },
            {
               "long_name" : "Bang Khen",
               "short_name" : "Bang Khen",
               "types" : [ "sublocality_level_1", "sublocality", "political" ]
            },
            {
               "long_name" : "Bangkok",
               "short_name" : "Bangkok",
               "types" : [ "locality", "political" ]
            },
            {
               "long_name" : "Bangkok",
               "short_name" : "Bangkok",
               "types" : [ "administrative_area_level_1", "political" ]
            },
            {
               "long_name" : "Thailand",
               "short_name" : "TH",
               "types" : [ "country", "political" ]
            },
            {
               "long_name" : "10220",
               "short_name" : "10220",
               "types" : [ "postal_code" ]
            }
         ],
         "formatted_address" : "Big C Supercenter, Anusawari, Bang Khen, Bangkok 10220, Thailand",
         "geometry" : {
            "bounds" : {
               "northeast" : {
                  "lat" : 13.8916493,
                  "lng" : 100.6068627
               },
               "southwest" : {
                  "lat" : 13.890527,
                  "lng" : 100.6058103
               }
            },
            "location" : {
               "lat" : 13.890949,
               "lng" : 100.6064598
            },
            "location_type" : "ROOFTOP",
            "viewport" : {
               "northeast" : {
                  "lat" : 13.8924371302915,
                  "lng" : 100.6076854802915
               },
               "southwest" : {
                  "lat" : 13.8897391697085,
                  "lng" : 100.6049875197085
               }
            }
         },
         "partial_match" : true,
         "place_id" : "ChIJx9K6ZL2C4jARW7tBntkp9Zc",
         "types" : [ "premise" ]
      }
   ],
   "status" : "OK"
}
