{
   "results" : [
      {
         "address_components" : [
            {
               "long_name" : "On Nut",
               "short_name" : "On Nut",
               "types" : [ "point_of_interest", "establishment" ]
            },
            {
               "long_name" : "Phra Khanong",
               "short_name" : "Phra Khanong",
               "types" : [ "sublocality_level_2", "sublocality", "political" ]
            },
            {
               "long_name" : "Khlong Toei",
               "short_name" : "Khlong Toei",
               "types" : [ "sublocality_level_1", "sublocality", "political" ]
            },
            {
               "long_name" : "Bangkok",
               "short_name" : "Bangkok",
               "types" : [ "locality", "political" ]
            },
            {
               "long_name" : "Bangkok",
               "short_name" : "Bangkok",
               "types" : [ "administrative_area_level_1", "political" ]
            },
            {
               "long_name" : "Thailand",
               "short_name" : "TH",
               "types" : [ "country", "political" ]
            },
            {
               "long_name" : "10110",
               "short_name" : "10110",
               "types" : [ "postal_code" ]
            }
         ],
         "formatted_address" : "On Nut, Phra Khanong, Khlong Toei, Bangkok 10110, Thailand",
         "geometry" : {
            "location" : {
               "lat" : 13.7055818,
               "lng" : 100.6010774
            },
            "location_type" : "APPROXIMATE",
            "viewport" : {
               "northeast" : {
                  "lat" : 13.7069307802915,
                  "lng" : 100.6024263802915
               },
               "southwest" : {
                  "lat" : 13.7042328197085,
                  "lng" : 100.5997284197085
               }
            }
         },
         "partial_match" : true,
         "place_id" : "ChIJRXUZtOuf4jAR9tah8bSb4c8",
         "types" : [
            "subway_station",
            "transit_station",
            "point_of_interest",
            "establishment"
         ]
      }
   ],
   "status" : "OK"
}
