{
   "results" : [
      {
         "address_components" : [
            {
               "long_name" : "สถานีรถไฟฟ้าBTSชิดลม",
               "short_name" : "สถานีรถไฟฟ้าBTSชิดลม",
               "types" : [ "point_of_interest", "establishment" ]
            },
            {
               "long_name" : "Thanon Phloen Chit",
               "short_name" : "Thanon Phloen Chit",
               "types" : [ "route" ]
            },
            {
               "long_name" : "Khwaeng Lumphini",
               "short_name" : "Khwaeng Lumphini",
               "types" : [ "sublocality_level_2", "sublocality", "political" ]
            },
            {
               "long_name" : "แขวง ลุมพินี เขต ปทุมวัน",
               "short_name" : "แขวง ลุมพินี เขต ปทุมวัน",
               "types" : [ "sublocality_level_1", "sublocality", "political" ]
            },
            {
               "long_name" : "Bangkok",
               "short_name" : "Bangkok",
               "types" : [ "locality", "political" ]
            },
            {
               "long_name" : "Krung Thep Maha Nakhon",
               "short_name" : "Krung Thep Maha Nakhon",
               "types" : [ "administrative_area_level_1", "political" ]
            },
            {
               "long_name" : "Thailand",
               "short_name" : "TH",
               "types" : [ "country", "political" ]
            },
            {
               "long_name" : "10330",
               "short_name" : "10330",
               "types" : [ "postal_code" ]
            }
         ],
         "formatted_address" : "สถานีรถไฟฟ้าBTSชิดลม Thanon Phloen Chit, Khwaeng Lumphini, แขวง ลุมพินี เขต ปทุมวัน Krung Thep Maha Nakhon 10330, Thailand",
         "geometry" : {
            "location" : {
               "lat" : 13.743783,
               "lng" : 100.5443433
            },
            "location_type" : "APPROXIMATE",
            "viewport" : {
               "northeast" : {
                  "lat" : 13.7451319802915,
                  "lng" : 100.5456922802915
               },
               "southwest" : {
                  "lat" : 13.7424340197085,
                  "lng" : 100.5429943197085
               }
            }
         },
         "partial_match" : true,
         "place_id" : "ChIJH1PmGdue4jARYDCr-ytha_0",
         "types" : [
            "train_station",
            "transit_station",
            "point_of_interest",
            "establishment"
         ]
      }
   ],
   "status" : "OK"
}
