{
   "results" : [
      {
         "address_components" : [
            {
               "long_name" : "Phaya Thai",
               "short_name" : "Phaya Thai",
               "types" : [ "point_of_interest", "establishment" ]
            },
            {
               "long_name" : "Thanon Phaya Thai",
               "short_name" : "Thanon Phaya Thai",
               "types" : [ "sublocality_level_2", "sublocality", "political" ]
            },
            {
               "long_name" : "Ratchathewi",
               "short_name" : "Ratchathewi",
               "types" : [ "sublocality_level_1", "sublocality", "political" ]
            },
            {
               "long_name" : "Bangkok",
               "short_name" : "Bangkok",
               "types" : [ "locality", "political" ]
            },
            {
               "long_name" : "Bangkok",
               "short_name" : "Bangkok",
               "types" : [ "administrative_area_level_1", "political" ]
            },
            {
               "long_name" : "Thailand",
               "short_name" : "TH",
               "types" : [ "country", "political" ]
            },
            {
               "long_name" : "10400",
               "short_name" : "10400",
               "types" : [ "postal_code" ]
            }
         ],
         "formatted_address" : "Phaya Thai, Thanon Phaya Thai, Ratchathewi, Bangkok 10400, Thailand",
         "geometry" : {
            "location" : {
               "lat" : 13.7568078,
               "lng" : 100.5337793
            },
            "location_type" : "APPROXIMATE",
            "viewport" : {
               "northeast" : {
                  "lat" : 13.7581567802915,
                  "lng" : 100.5351282802915
               },
               "southwest" : {
                  "lat" : 13.7554588197085,
                  "lng" : 100.5324303197085
               }
            }
         },
         "partial_match" : true,
         "place_id" : "ChIJW0bacsqe4jAR8tpUwcuInMs",
         "types" : [
            "subway_station",
            "transit_station",
            "point_of_interest",
            "establishment"
         ]
      }
   ],
   "status" : "OK"
}
