{
   "results" : [
      {
         "address_components" : [
            {
               "long_name" : "Saphan Taksin",
               "short_name" : "Saphan Taksin",
               "types" : [ "point_of_interest", "establishment" ]
            },
            {
               "long_name" : "Yan Nawa",
               "short_name" : "Yan Nawa",
               "types" : [ "sublocality_level_2", "sublocality", "political" ]
            },
            {
               "long_name" : "Sathon",
               "short_name" : "Sathon",
               "types" : [ "sublocality_level_1", "sublocality", "political" ]
            },
            {
               "long_name" : "Bangkok",
               "short_name" : "Bangkok",
               "types" : [ "locality", "political" ]
            },
            {
               "long_name" : "Bangkok",
               "short_name" : "Bangkok",
               "types" : [ "administrative_area_level_1", "political" ]
            },
            {
               "long_name" : "Thailand",
               "short_name" : "TH",
               "types" : [ "country", "political" ]
            },
            {
               "long_name" : "10120",
               "short_name" : "10120",
               "types" : [ "postal_code" ]
            }
         ],
         "formatted_address" : "Saphan Taksin, Yan Nawa, Sathon, Bangkok 10120, Thailand",
         "geometry" : {
            "location" : {
               "lat" : 13.7187494,
               "lng" : 100.5141448
            },
            "location_type" : "APPROXIMATE",
            "viewport" : {
               "northeast" : {
                  "lat" : 13.7200983802915,
                  "lng" : 100.5154937802915
               },
               "southwest" : {
                  "lat" : 13.7174004197085,
                  "lng" : 100.5127958197085
               }
            }
         },
         "partial_match" : true,
         "place_id" : "ChIJeR-AIsSY4jARds3iUOhQAa8",
         "types" : [
            "subway_station",
            "transit_station",
            "point_of_interest",
            "establishment"
         ]
      }
   ],
   "status" : "OK"
}
