{
   "results" : [
      {
         "address_components" : [
            {
               "long_name" : "Songkhla",
               "short_name" : "จ.สงขลา",
               "types" : [ "administrative_area_level_1", "political" ]
            },
            {
               "long_name" : "Thailand",
               "short_name" : "TH",
               "types" : [ "country", "political" ]
            }
         ],
         "formatted_address" : "Songkhla, Thailand",
         "geometry" : {
            "bounds" : {
               "northeast" : {
                  "lat" : 7.9389736,
                  "lng" : 101.1050578
               },
               "southwest" : {
                  "lat" : 6.2898742,
                  "lng" : 100.0547578
               }
            },
            "location" : {
               "lat" : 7.1756004,
               "lng" : 100.614347
            },
            "location_type" : "APPROXIMATE",
            "viewport" : {
               "northeast" : {
                  "lat" : 7.9389736,
                  "lng" : 101.1050578
               },
               "southwest" : {
                  "lat" : 6.2898742,
                  "lng" : 100.0547578
               }
            }
         },
         "partial_match" : true,
         "place_id" : "ChIJQSQJr9zVTDAREo4d7Hg3myU",
         "types" : [ "administrative_area_level_1", "political" ]
      }
   ],
   "status" : "OK"
}
