{
   "results" : [
      {
         "address_components" : [
            {
               "long_name" : "Tak",
               "short_name" : "จ.ตาก",
               "types" : [ "administrative_area_level_1", "political" ]
            },
            {
               "long_name" : "Thailand",
               "short_name" : "TH",
               "types" : [ "country", "political" ]
            }
         ],
         "formatted_address" : "Tak, Thailand",
         "geometry" : {
            "bounds" : {
               "northeast" : {
                  "lat" : 17.8678208,
                  "lng" : 99.48912449999999
               },
               "southwest" : {
                  "lat" : 15.1807556,
                  "lng" : 97.7423139
               }
            },
            "location" : {
               "lat" : 16.8839901,
               "lng" : 99.1258498
            },
            "location_type" : "APPROXIMATE",
            "viewport" : {
               "northeast" : {
                  "lat" : 17.8678208,
                  "lng" : 99.48912449999999
               },
               "southwest" : {
                  "lat" : 15.1807556,
                  "lng" : 97.7423139
               }
            }
         },
         "partial_match" : true,
         "place_id" : "ChIJUer_g9-E3TARcEuK-sVGAwE",
         "types" : [ "administrative_area_level_1", "political" ]
      }
   ],
   "status" : "OK"
}
