{
   "results" : [
      {
         "address_components" : [
            {
               "long_name" : "Bang Mot",
               "short_name" : "Bang Mot",
               "types" : [ "natural_feature", "establishment" ]
            },
            {
               "long_name" : "Thung Khru",
               "short_name" : "Thung Khru",
               "types" : [ "sublocality_level_1", "sublocality", "political" ]
            },
            {
               "long_name" : "Bangkok",
               "short_name" : "Bangkok",
               "types" : [ "locality", "political" ]
            },
            {
               "long_name" : "Bangkok",
               "short_name" : "Bangkok",
               "types" : [ "administrative_area_level_1", "political" ]
            },
            {
               "long_name" : "Thailand",
               "short_name" : "TH",
               "types" : [ "country", "political" ]
            }
         ],
         "formatted_address" : "Bang Mot, Thung Khru, Bangkok, Thailand",
         "geometry" : {
            "bounds" : {
               "northeast" : {
                  "lat" : 13.6602229,
                  "lng" : 100.4756954
               },
               "southwest" : {
                  "lat" : 13.6271847,
                  "lng" : 100.470026
               }
            },
            "location" : {
               "lat" : 13.6437038,
               "lng" : 100.4728607
            },
            "location_type" : "APPROXIMATE",
            "viewport" : {
               "northeast" : {
                  "lat" : 13.6602229,
                  "lng" : 100.4756954
               },
               "southwest" : {
                  "lat" : 13.6271847,
                  "lng" : 100.470026
               }
            }
         },
         "partial_match" : true,
         "place_id" : "ChIJ-_qyMR2j4jAROkr2Z6BMrFE",
         "types" : [ "natural_feature", "establishment" ]
      }
   ],
   "status" : "OK"
}
