{
   "results" : [
      {
         "address_components" : [
            {
               "long_name" : "Phunsin Thani 1 Village",
               "short_name" : "Phunsin Thani 1 Village",
               "types" : [ "neighborhood", "political" ]
            },
            {
               "long_name" : "Khlong Song Ton Nun",
               "short_name" : "Khlong Song Ton Nun",
               "types" : [ "sublocality_level_2", "sublocality", "political" ]
            },
            {
               "long_name" : "Lat Krabang",
               "short_name" : "Lat Krabang",
               "types" : [ "sublocality_level_1", "sublocality", "political" ]
            },
            {
               "long_name" : "Bangkok",
               "short_name" : "Bangkok",
               "types" : [ "locality", "political" ]
            },
            {
               "long_name" : "Bangkok",
               "short_name" : "Bangkok",
               "types" : [ "administrative_area_level_1", "political" ]
            },
            {
               "long_name" : "Thailand",
               "short_name" : "TH",
               "types" : [ "country", "political" ]
            },
            {
               "long_name" : "10520",
               "short_name" : "10520",
               "types" : [ "postal_code" ]
            }
         ],
         "formatted_address" : "Phunsin Thani 1 Village, Khlong Song Ton Nun, Lat Krabang, Bangkok 10520, Thailand",
         "geometry" : {
            "location" : {
               "lat" : 13.768241,
               "lng" : 100.721151
            },
            "location_type" : "APPROXIMATE",
            "viewport" : {
               "northeast" : {
                  "lat" : 13.7790781,
                  "lng" : 100.7371584
               },
               "southwest" : {
                  "lat" : 13.7574034,
                  "lng" : 100.7051436
               }
            }
         },
         "partial_match" : true,
         "place_id" : "ChIJs2M4J6ZmHTER-FFgxqwPPV8",
         "types" : [ "neighborhood", "political" ]
      }
   ],
   "status" : "OK"
}
