{
   "results" : [
      {
         "address_components" : [
            {
               "long_name" : "Buri Ram",
               "short_name" : "จ.บุรีรัมย์",
               "types" : [ "administrative_area_level_1", "political" ]
            },
            {
               "long_name" : "Thailand",
               "short_name" : "TH",
               "types" : [ "country", "political" ]
            }
         ],
         "formatted_address" : "Buri Ram, Thailand",
         "geometry" : {
            "bounds" : {
               "northeast" : {
                  "lat" : 15.7956564,
                  "lng" : 103.5050278
               },
               "southwest" : {
                  "lat" : 14.1307677,
                  "lng" : 102.4323873
               }
            },
            "location" : {
               "lat" : 14.9930017,
               "lng" : 103.1029191
            },
            "location_type" : "APPROXIMATE",
            "viewport" : {
               "northeast" : {
                  "lat" : 15.7956564,
                  "lng" : 103.5050278
               },
               "southwest" : {
                  "lat" : 14.1307677,
                  "lng" : 102.4323873
               }
            }
         },
         "partial_match" : true,
         "place_id" : "ChIJRzKjJ8CZGTERcEneyM9pBAE",
         "types" : [ "administrative_area_level_1", "political" ]
      }
   ],
   "status" : "OK"
}
