{
   "results" : [
      {
         "address_components" : [
            {
               "long_name" : "Ko Phi Phi Don",
               "short_name" : "Ko Phi Phi Don",
               "types" : [ "natural_feature", "establishment" ]
            },
            {
               "long_name" : "Thailand",
               "short_name" : "TH",
               "types" : [ "country", "political" ]
            }
         ],
         "formatted_address" : "Ko Phi Phi Don, Thailand",
         "geometry" : {
            "bounds" : {
               "northeast" : {
                  "lat" : 7.7877235,
                  "lng" : 98.79233479999999
               },
               "southwest" : {
                  "lat" : 7.7175806,
                  "lng" : 98.7558902
               }
            },
            "location" : {
               "lat" : 7.746115799999999,
               "lng" : 98.77840999999999
            },
            "location_type" : "APPROXIMATE",
            "viewport" : {
               "northeast" : {
                  "lat" : 7.7877235,
                  "lng" : 98.79233479999999
               },
               "southwest" : {
                  "lat" : 7.7175806,
                  "lng" : 98.7558902
               }
            }
         },
         "partial_match" : true,
         "place_id" : "ChIJu5nMFeneUTARFNDk2N2gvnU",
         "types" : [ "natural_feature", "establishment" ]
      }
   ],
   "status" : "OK"
}
