{
   "results" : [
      {
         "address_components" : [
            {
               "long_name" : "New House Condominium",
               "short_name" : "New House Condominium",
               "types" : [ "point_of_interest", "establishment" ]
            },
            {
               "long_name" : "Thanon Phloen Chit",
               "short_name" : "Thanon Phloen Chit",
               "types" : [ "route" ]
            },
            {
               "long_name" : "Khwaeng Lumphini",
               "short_name" : "Khwaeng Lumphini",
               "types" : [ "sublocality_level_2", "sublocality", "political" ]
            },
            {
               "long_name" : "Khet Pathum Wan",
               "short_name" : "Khet Pathum Wan",
               "types" : [ "sublocality_level_1", "sublocality", "political" ]
            },
            {
               "long_name" : "Bangkok",
               "short_name" : "Bangkok",
               "types" : [ "locality", "political" ]
            },
            {
               "long_name" : "Krung Thep Maha Nakhon",
               "short_name" : "Krung Thep Maha Nakhon",
               "types" : [ "administrative_area_level_1", "political" ]
            },
            {
               "long_name" : "Thailand",
               "short_name" : "TH",
               "types" : [ "country", "political" ]
            },
            {
               "long_name" : "10330",
               "short_name" : "10330",
               "types" : [ "postal_code" ]
            }
         ],
         "formatted_address" : "New House Condominium, Thanon Phloen Chit, Khwaeng Lumphini, Khet Pathum Wan, Krung Thep Maha Nakhon 10330, Thailand",
         "geometry" : {
            "location" : {
               "lat" : 13.7454902,
               "lng" : 100.5455543
            },
            "location_type" : "APPROXIMATE",
            "viewport" : {
               "northeast" : {
                  "lat" : 13.7468391802915,
                  "lng" : 100.5469032802915
               },
               "southwest" : {
                  "lat" : 13.7441412197085,
                  "lng" : 100.5442053197085
               }
            }
         },
         "partial_match" : true,
         "place_id" : "ChIJ6Ts3s8Se4jARbSnbd5iq6Ik",
         "types" : [ "point_of_interest", "establishment" ]
      },
      {
         "address_components" : [
            {
               "long_name" : "Newport Place Condo",
               "short_name" : "Newport Place Condo",
               "types" : [ "point_of_interest", "establishment" ]
            },
            {
               "long_name" : "Sai Mai",
               "short_name" : "Sai Mai",
               "types" : [ "sublocality_level_1", "sublocality", "political" ]
            },
            {
               "long_name" : "Bangkok",
               "short_name" : "Bangkok",
               "types" : [ "locality", "political" ]
            },
            {
               "long_name" : "จังหวัด กรุงเทพมหานคร",
               "short_name" : "จังหวัด กรุงเทพมหานคร",
               "types" : [ "administrative_area_level_1", "political" ]
            },
            {
               "long_name" : "Thailand",
               "short_name" : "TH",
               "types" : [ "country", "political" ]
            },
            {
               "long_name" : "10220",
               "short_name" : "10220",
               "types" : [ "postal_code" ]
            }
         ],
         "formatted_address" : "Newport Place Condo, Bangkok, จังหวัด กรุงเทพมหานคร 10220, Thailand",
         "geometry" : {
            "location" : {
               "lat" : 13.8937619,
               "lng" : 100.6133617
            },
            "location_type" : "APPROXIMATE",
            "viewport" : {
               "northeast" : {
                  "lat" : 13.8951108802915,
                  "lng" : 100.6147106802915
               },
               "southwest" : {
                  "lat" : 13.8924129197085,
                  "lng" : 100.6120127197085
               }
            }
         },
         "partial_match" : true,
         "place_id" : "ChIJmQct2JiC4jARPAl0zv64OKs",
         "types" : [ "point_of_interest", "establishment" ]
      },
      {
         "address_components" : [
            {
               "long_name" : "Soi Mu Ban Mueang Thong Thani Khrongkan Popular Condo",
               "short_name" : "Soi Mu Ban Mueang Thong Thani Khrongkan Popular Condo",
               "types" : [ "route" ]
            },
            {
               "long_name" : "Tambon Ban Mai",
               "short_name" : "Tambon Ban Mai",
               "types" : [ "sublocality_level_1", "sublocality", "political" ]
            },
            {
               "long_name" : "Pak Kret",
               "short_name" : "Pak Kret",
               "types" : [ "locality", "political" ]
            },
            {
               "long_name" : "Amphoe Pak Kret",
               "short_name" : "อ.ปากเกร็ด",
               "types" : [ "administrative_area_level_2", "political" ]
            },
            {
               "long_name" : "Chang Wat Nonthaburi",
               "short_name" : "จ.นนทบุรี",
               "types" : [ "administrative_area_level_1", "political" ]
            },
            {
               "long_name" : "Thailand",
               "short_name" : "TH",
               "types" : [ "country", "political" ]
            },
            {
               "long_name" : "11120",
               "short_name" : "11120",
               "types" : [ "postal_code" ]
            }
         ],
         "formatted_address" : "Soi Mu Ban Mueang Thong Thani Khrongkan Popular Condo, Tambon Ban Mai, Amphoe Pak Kret, Chang Wat Nonthaburi 11120, Thailand",
         "geometry" : {
            "bounds" : {
               "northeast" : {
                  "lat" : 13.9189658,
                  "lng" : 100.557551
               },
               "southwest" : {
                  "lat" : 13.9073543,
                  "lng" : 100.5512828
               }
            },
            "location" : {
               "lat" : 13.9132187,
               "lng" : 100.5544363
            },
            "location_type" : "GEOMETRIC_CENTER",
            "viewport" : {
               "northeast" : {
                  "lat" : 13.9189658,
                  "lng" : 100.557551
               },
               "southwest" : {
                  "lat" : 13.9073543,
                  "lng" : 100.5512828
               }
            }
         },
         "partial_match" : true,
         "place_id" : "ChIJbfaWBQuD4jARxssqMfTXZPw",
         "types" : [ "route" ]
      },
      {
         "address_components" : [
            {
               "long_name" : "Popular Road",
               "short_name" : "Popular Rd",
               "types" : [ "route" ]
            },
            {
               "long_name" : "Tambon Ban Mai",
               "short_name" : "Tambon Ban Mai",
               "types" : [ "sublocality_level_1", "sublocality", "political" ]
            },
            {
               "long_name" : "Pak Kret",
               "short_name" : "Pak Kret",
               "types" : [ "locality", "political" ]
            },
            {
               "long_name" : "Amphoe Pak Kret",
               "short_name" : "อ.ปากเกร็ด",
               "types" : [ "administrative_area_level_2", "political" ]
            },
            {
               "long_name" : "Chang Wat Nonthaburi",
               "short_name" : "จ.นนทบุรี",
               "types" : [ "administrative_area_level_1", "political" ]
            },
            {
               "long_name" : "Thailand",
               "short_name" : "TH",
               "types" : [ "country", "political" ]
            },
            {
               "long_name" : "11120",
               "short_name" : "11120",
               "types" : [ "postal_code" ]
            }
         ],
         "formatted_address" : "Popular Rd - Soi Mu Ban Mueang Thong Thani Khrongkan Popular Condo, Tambon Ban Mai, Amphoe Pak Kret, Chang Wat Nonthaburi 11120, Thailand",
         "geometry" : {
            "location" : {
               "lat" : 13.909452,
               "lng" : 100.5521997
            },
            "location_type" : "APPROXIMATE",
            "viewport" : {
               "northeast" : {
                  "lat" : 13.9108009802915,
                  "lng" : 100.5535486802915
               },
               "southwest" : {
                  "lat" : 13.9081030197085,
                  "lng" : 100.5508507197085
               }
            }
         },
         "partial_match" : true,
         "place_id" : "EuUB4LiW4LiZ4LiZIOC4m-C5iuC4reC4m-C4m-C4ueC4peC5iOC4siAtIFNvaSBNdSBCYW4gTXVlYW5nIFRob25nIFRoYW5pIEtocm9uZ2thbiBQb3B1bGFyIENvbmRvLCDguJXguLPguJrguKUg4Lia4LmJ4Liy4LiZ4LmD4Lir4Lih4LmIIOC4reC4s-C5gOC4oOC4rSDguJvguLLguIHguYDguIHguKPguYfguJQg4LiZ4LiZ4LiX4Lia4Li44Lij4Li1IDExMTIwIOC4m-C4o-C4sOC5gOC4l-C4qOC5hOC4l-C4og",
         "types" : [ "intersection" ]
      }
   ],
   "status" : "OK"
}
