{
   "results" : [
      {
         "address_components" : [
            {
               "long_name" : "กรองทองแมนชั่น อมตะนคร ชลบุรี",
               "short_name" : "กรองทองแมนชั่น อมตะนคร ชลบุรี",
               "types" : [ "point_of_interest", "establishment" ]
            },
            {
               "long_name" : "ชลบุรี",
               "short_name" : "ชลบุรี",
               "types" : [ "locality", "political" ]
            },
            {
               "long_name" : "อำเภอเมืองชลบุรี",
               "short_name" : "อำเภอเมืองชลบุรี",
               "types" : [ "administrative_area_level_2", "political" ]
            },
            {
               "long_name" : "ชลบุรี",
               "short_name" : "จ.ชลบุรี",
               "types" : [ "administrative_area_level_1", "political" ]
            },
            {
               "long_name" : "Thailand",
               "short_name" : "TH",
               "types" : [ "country", "political" ]
            },
            {
               "long_name" : "20000",
               "short_name" : "20000",
               "types" : [ "postal_code" ]
            }
         ],
         "formatted_address" : "กรองทองแมนชั่น อมตะนคร ชลบุรี ชลบุรี อำเภอเมืองชลบุรี ชลบุรี 20000, Thailand",
         "geometry" : {
            "location" : {
               "lat" : 13.413503,
               "lng" : 101.043566
            },
            "location_type" : "APPROXIMATE",
            "viewport" : {
               "northeast" : {
                  "lat" : 13.4148519802915,
                  "lng" : 101.0449149802915
               },
               "southwest" : {
                  "lat" : 13.4121540197085,
                  "lng" : 101.0422170197085
               }
            }
         },
         "partial_match" : true,
         "place_id" : "ChIJO35bhZQ2HTERj_dm8LrFyDo",
         "types" : [ "point_of_interest", "establishment" ]
      }
   ],
   "status" : "OK"
}
