{
   "results" : [
      {
         "address_components" : [
            {
               "long_name" : "มหาวิทยาลัยมหิดลศาลายา",
               "short_name" : "มหาวิทยาลัยมหิดลศาลายา",
               "types" : [ "point_of_interest", "establishment" ]
            },
            {
               "long_name" : "ตำบล ศาลายา",
               "short_name" : "ตำบล ศาลายา",
               "types" : [ "locality", "political" ]
            },
            {
               "long_name" : "อำเภอ พุทธมณฑล",
               "short_name" : "อำเภอ พุทธมณฑล",
               "types" : [ "administrative_area_level_2", "political" ]
            },
            {
               "long_name" : "นครปฐม",
               "short_name" : "จ.นคาปฐม",
               "types" : [ "administrative_area_level_1", "political" ]
            },
            {
               "long_name" : "Thailand",
               "short_name" : "TH",
               "types" : [ "country", "political" ]
            },
            {
               "long_name" : "73170",
               "short_name" : "73170",
               "types" : [ "postal_code" ]
            }
         ],
         "formatted_address" : "มหาวิทยาลัยมหิดลศาลายา ตำบล ศาลายา อำเภอ พุทธมณฑล นครปฐม 73170, Thailand",
         "geometry" : {
            "location" : {
               "lat" : 13.7960467,
               "lng" : 100.3271332
            },
            "location_type" : "APPROXIMATE",
            "viewport" : {
               "northeast" : {
                  "lat" : 13.7973956802915,
                  "lng" : 100.3284821802915
               },
               "southwest" : {
                  "lat" : 13.7946977197085,
                  "lng" : 100.3257842197085
               }
            }
         },
         "partial_match" : true,
         "place_id" : "ChIJfZeutYyT4jARS8mB0DDNY58",
         "types" : [
            "bus_station",
            "transit_station",
            "point_of_interest",
            "establishment"
         ]
      }
   ],
   "status" : "OK"
}
