{
   "results" : [
      {
         "address_components" : [
            {
               "long_name" : "Chakphet Road",
               "short_name" : "Chakphet Rd",
               "types" : [ "route" ]
            },
            {
               "long_name" : "Khwaeng Wang Burapha Phirom",
               "short_name" : "Khwaeng Wang Burapha Phirom",
               "types" : [ "sublocality_level_2", "sublocality", "political" ]
            },
            {
               "long_name" : "Khet Phra Nakhon",
               "short_name" : "Khet Phra Nakhon",
               "types" : [ "sublocality_level_1", "sublocality", "political" ]
            },
            {
               "long_name" : "Bangkok",
               "short_name" : "Bangkok",
               "types" : [ "locality", "political" ]
            },
            {
               "long_name" : "Krung Thep Maha Nakhon",
               "short_name" : "Krung Thep Maha Nakhon",
               "types" : [ "administrative_area_level_1", "political" ]
            },
            {
               "long_name" : "Thailand",
               "short_name" : "TH",
               "types" : [ "country", "political" ]
            },
            {
               "long_name" : "10200",
               "short_name" : "10200",
               "types" : [ "postal_code" ]
            }
         ],
         "formatted_address" : "Chakphet Rd - Saphan Phut, Khwaeng Wang Burapha Phirom, Khet Phra Nakhon, Krung Thep Maha Nakhon 10200, Thailand",
         "geometry" : {
            "location" : {
               "lat" : 13.7418302,
               "lng" : 100.4975589
            },
            "location_type" : "APPROXIMATE",
            "viewport" : {
               "northeast" : {
                  "lat" : 13.7431791802915,
                  "lng" : 100.4989078802915
               },
               "southwest" : {
                  "lat" : 13.7404812197085,
                  "lng" : 100.4962099197085
               }
            }
         },
         "partial_match" : true,
         "place_id" : "Et8B4LiW4LiZ4LiZIOC4iOC4seC4geC4o-C5gOC4nuC4iuC4oyAtIOC4quC4sOC4nuC4suC4meC4nuC4uOC4l-C4mCDguYHguILguKfguIcg4Lin4Lix4LiH4Lia4Li54Lij4Lie4Liy4Lig4Li04Lij4Lih4Lii4LmMIOC5gOC4guC4lSDguJ7guKPguLDguJnguITguKMg4LiB4Lij4Li44LiH4LmA4LiX4Lie4Lih4Lir4Liy4LiZ4LiE4LijIDEwMjAwIOC4m-C4o-C4sOC5gOC4l-C4qOC5hOC4l-C4og",
         "types" : [ "intersection" ]
      }
   ],
   "status" : "OK"
}
