{
   "results" : [
      {
         "address_components" : [
            {
               "long_name" : "ตลาดฐานเพชร2",
               "short_name" : "ตลาดฐานเพชร2",
               "types" : [ "premise" ]
            },
            {
               "long_name" : "ตำบล บางกะดี",
               "short_name" : "ตำบล บางกะดี",
               "types" : [ "locality", "political" ]
            },
            {
               "long_name" : "อำเภอเมืองปทุมธานี",
               "short_name" : "อำเภอเมืองปทุมธานี",
               "types" : [ "administrative_area_level_2", "political" ]
            },
            {
               "long_name" : "ปทุมธานี",
               "short_name" : "จ.ปทุมธานี",
               "types" : [ "administrative_area_level_1", "political" ]
            },
            {
               "long_name" : "Thailand",
               "short_name" : "TH",
               "types" : [ "country", "political" ]
            },
            {
               "long_name" : "12000",
               "short_name" : "12000",
               "types" : [ "postal_code" ]
            }
         ],
         "formatted_address" : "ตลาดฐานเพชร2 ตำบล บางกะดี อำเภอเมืองปทุมธานี ปทุมธานี 12000, Thailand",
         "geometry" : {
            "bounds" : {
               "northeast" : {
                  "lat" : 13.9725115,
                  "lng" : 100.5505509
               },
               "southwest" : {
                  "lat" : 13.9722802,
                  "lng" : 100.5502812
               }
            },
            "location" : {
               "lat" : 13.9724054,
               "lng" : 100.5503999
            },
            "location_type" : "ROOFTOP",
            "viewport" : {
               "northeast" : {
                  "lat" : 13.9737448302915,
                  "lng" : 100.5517650302915
               },
               "southwest" : {
                  "lat" : 13.9710468697085,
                  "lng" : 100.5490670697085
               }
            }
         },
         "partial_match" : true,
         "place_id" : "ChIJR0g6FF2B4jARGyhPXxiP3rk",
         "types" : [ "premise" ]
      }
   ],
   "status" : "OK"
}
