{
   "results" : [
      {
         "address_components" : [
            {
               "long_name" : "Bang Pu",
               "short_name" : "Bang Pu",
               "types" : [ "natural_feature", "establishment" ]
            },
            {
               "long_name" : "Bang Sao Thong",
               "short_name" : "Bang Sao Thong",
               "types" : [ "locality", "political" ]
            },
            {
               "long_name" : "Bang Sao Thong District",
               "short_name" : "Bang Sao Thong District",
               "types" : [ "administrative_area_level_2", "political" ]
            },
            {
               "long_name" : "Samut Prakan",
               "short_name" : "จ.สมุทรปราการ",
               "types" : [ "administrative_area_level_1", "political" ]
            },
            {
               "long_name" : "Thailand",
               "short_name" : "TH",
               "types" : [ "country", "political" ]
            },
            {
               "long_name" : "10540",
               "short_name" : "10540",
               "types" : [ "postal_code" ]
            }
         ],
         "formatted_address" : "Bang Pu, Bang Sao Thong, Bang Sao Thong District, Samut Prakan 10540, Thailand",
         "geometry" : {
            "bounds" : {
               "northeast" : {
                  "lat" : 13.5875428,
                  "lng" : 100.7904453
               },
               "southwest" : {
                  "lat" : 13.5837242,
                  "lng" : 100.7896924
               }
            },
            "location" : {
               "lat" : 13.5856335,
               "lng" : 100.7900688
            },
            "location_type" : "APPROXIMATE",
            "viewport" : {
               "northeast" : {
                  "lat" : 13.596479,
                  "lng" : 100.8060762
               },
               "southwest" : {
                  "lat" : 13.5747875,
                  "lng" : 100.7740614
               }
            }
         },
         "partial_match" : true,
         "place_id" : "ChIJlzdl6FdbHTERWYo1x3K_oTk",
         "types" : [ "natural_feature", "establishment" ]
      }
   ],
   "status" : "OK"
}
