{
   "results" : [
      {
         "address_components" : [
            {
               "long_name" : "Sinsakhon Packaging and Printing Industrial Estate",
               "short_name" : "Sinsakhon Packaging and Printing Industrial Estate",
               "types" : []
            },
            {
               "long_name" : "Khok Kham",
               "short_name" : "ต.โคกขาม",
               "types" : [ "locality", "political" ]
            },
            {
               "long_name" : "Mueang Samut Sakhon District",
               "short_name" : "อ. เมือง สมุทรสาคร",
               "types" : [ "administrative_area_level_2", "political" ]
            },
            {
               "long_name" : "Samut Sakhon",
               "short_name" : "จ.สมุทรสาคร",
               "types" : [ "administrative_area_level_1", "political" ]
            },
            {
               "long_name" : "Thailand",
               "short_name" : "TH",
               "types" : [ "country", "political" ]
            },
            {
               "long_name" : "74000",
               "short_name" : "74000",
               "types" : [ "postal_code" ]
            }
         ],
         "formatted_address" : "Sinsakhon Packaging and Printing Industrial Estate, Khok Kham, Mueang Samut Sakhon District, Samut Sakhon 74000, Thailand",
         "geometry" : {
            "bounds" : {
               "northeast" : {
                  "lat" : 13.5672064,
                  "lng" : 100.3400241
               },
               "southwest" : {
                  "lat" : 13.5657243,
                  "lng" : 100.3386473
               }
            },
            "location" : {
               "lat" : 13.5665036,
               "lng" : 100.3394395
            },
            "location_type" : "APPROXIMATE",
            "viewport" : {
               "northeast" : {
                  "lat" : 13.5678143302915,
                  "lng" : 100.3406846802915
               },
               "southwest" : {
                  "lat" : 13.5651163697085,
                  "lng" : 100.3379867197085
               }
            }
         },
         "partial_match" : true,
         "place_id" : "ChIJHyoZvHm54jAR1BUe-0qfZ0s",
         "types" : []
      }
   ],
   "status" : "OK"
}
