{
   "results" : [
      {
         "address_components" : [
            {
               "long_name" : "Sutthisan",
               "short_name" : "Sutthisan",
               "types" : [ "point_of_interest", "establishment" ]
            },
            {
               "long_name" : "Huai Khwang",
               "short_name" : "Huai Khwang",
               "types" : [ "sublocality_level_2", "sublocality", "political" ]
            },
            {
               "long_name" : "Huai Khwang",
               "short_name" : "Huai Khwang",
               "types" : [ "sublocality_level_1", "sublocality", "political" ]
            },
            {
               "long_name" : "Bangkok",
               "short_name" : "Bangkok",
               "types" : [ "locality", "political" ]
            },
            {
               "long_name" : "Bangkok",
               "short_name" : "Bangkok",
               "types" : [ "administrative_area_level_1", "political" ]
            },
            {
               "long_name" : "Thailand",
               "short_name" : "TH",
               "types" : [ "country", "political" ]
            },
            {
               "long_name" : "10310",
               "short_name" : "10310",
               "types" : [ "postal_code" ]
            }
         ],
         "formatted_address" : "Sutthisan, Huai Khwang, Huai Khwang, Bangkok 10310, Thailand",
         "geometry" : {
            "location" : {
               "lat" : 13.7890148,
               "lng" : 100.5744066
            },
            "location_type" : "APPROXIMATE",
            "viewport" : {
               "northeast" : {
                  "lat" : 13.7903637802915,
                  "lng" : 100.5757555802915
               },
               "southwest" : {
                  "lat" : 13.7876658197085,
                  "lng" : 100.5730576197085
               }
            }
         },
         "partial_match" : true,
         "place_id" : "ChIJBZqkSC2c4jARGu3cAtgSSdw",
         "types" : [
            "subway_station",
            "transit_station",
            "point_of_interest",
            "establishment"
         ]
      }
   ],
   "status" : "OK"
}
