{
   "results" : [
      {
         "address_components" : [
            {
               "long_name" : "Saraburi",
               "short_name" : "จ.สระบุรี",
               "types" : [ "administrative_area_level_1", "political" ]
            },
            {
               "long_name" : "Thailand",
               "short_name" : "TH",
               "types" : [ "country", "political" ]
            }
         ],
         "formatted_address" : "Saraburi, Thailand",
         "geometry" : {
            "bounds" : {
               "northeast" : {
                  "lat" : 15.045331,
                  "lng" : 101.4545122
               },
               "southwest" : {
                  "lat" : 14.2430606,
                  "lng" : 100.5748146
               }
            },
            "location" : {
               "lat" : 14.5289154,
               "lng" : 100.9101421
            },
            "location_type" : "APPROXIMATE",
            "viewport" : {
               "northeast" : {
                  "lat" : 15.045331,
                  "lng" : 101.4545122
               },
               "southwest" : {
                  "lat" : 14.2430606,
                  "lng" : 100.5748146
               }
            }
         },
         "partial_match" : true,
         "place_id" : "ChIJh7kmgLDdHTERsEgMRTeSAQE",
         "types" : [ "administrative_area_level_1", "political" ]
      }
   ],
   "status" : "OK"
}
