{
   "results" : [
      {
         "address_components" : [
            {
               "long_name" : "Chok Chai District",
               "short_name" : "อ.โชคชัย",
               "types" : [ "administrative_area_level_2", "political" ]
            },
            {
               "long_name" : "Nakhon Ratchasima",
               "short_name" : "จ.นครราชสีมา",
               "types" : [ "administrative_area_level_1", "political" ]
            },
            {
               "long_name" : "Thailand",
               "short_name" : "TH",
               "types" : [ "country", "political" ]
            }
         ],
         "formatted_address" : "Chok Chai District, Nakhon Ratchasima, Thailand",
         "geometry" : {
            "bounds" : {
               "northeast" : {
                  "lat" : 14.9186043,
                  "lng" : 102.3207907
               },
               "southwest" : {
                  "lat" : 14.5906895,
                  "lng" : 102.1032646
               }
            },
            "location" : {
               "lat" : 14.7531084,
               "lng" : 102.2090224
            },
            "location_type" : "APPROXIMATE",
            "viewport" : {
               "northeast" : {
                  "lat" : 14.9186043,
                  "lng" : 102.3207907
               },
               "southwest" : {
                  "lat" : 14.5906895,
                  "lng" : 102.1032646
               }
            }
         },
         "partial_match" : true,
         "place_id" : "ChIJSy229QBXGTERQFreyM9pBAM",
         "types" : [ "administrative_area_level_2", "political" ]
      }
   ],
   "status" : "OK"
}
