{
   "results" : [
      {
         "address_components" : [
            {
               "long_name" : "Sa Kaeo",
               "short_name" : "จ.สระแก้ว",
               "types" : [ "administrative_area_level_1", "political" ]
            },
            {
               "long_name" : "Thailand",
               "short_name" : "TH",
               "types" : [ "country", "political" ]
            }
         ],
         "formatted_address" : "Sa Kaeo, Thailand",
         "geometry" : {
            "bounds" : {
               "northeast" : {
                  "lat" : 14.2078453,
                  "lng" : 102.9415572
               },
               "southwest" : {
                  "lat" : 13.2367098,
                  "lng" : 101.8760344
               }
            },
            "location" : {
               "lat" : 13.824038,
               "lng" : 102.0645839
            },
            "location_type" : "APPROXIMATE",
            "viewport" : {
               "northeast" : {
                  "lat" : 14.2078453,
                  "lng" : 102.9415572
               },
               "southwest" : {
                  "lat" : 13.2367098,
                  "lng" : 101.8760344
               }
            }
         },
         "partial_match" : true,
         "place_id" : "ChIJR07uWgsUGzER4NmS94eOBUI",
         "types" : [ "administrative_area_level_1", "political" ]
      }
   ],
   "status" : "OK"
}
