{
   "results" : [
      {
         "address_components" : [
            {
               "long_name" : "Pathum Thani",
               "short_name" : "จ.ปทุมธานี",
               "types" : [ "administrative_area_level_1", "political" ]
            },
            {
               "long_name" : "Thailand",
               "short_name" : "TH",
               "types" : [ "country", "political" ]
            }
         ],
         "formatted_address" : "Pathum Thani, Thailand",
         "geometry" : {
            "bounds" : {
               "northeast" : {
                  "lat" : 14.2759685,
                  "lng" : 100.9520247
               },
               "southwest" : {
                  "lat" : 13.9161577,
                  "lng" : 100.3316202
               }
            },
            "location" : {
               "lat" : 14.0208391,
               "lng" : 100.5250276
            },
            "location_type" : "APPROXIMATE",
            "viewport" : {
               "northeast" : {
                  "lat" : 14.2759685,
                  "lng" : 100.9520247
               },
               "southwest" : {
                  "lat" : 13.9161577,
                  "lng" : 100.3316202
               }
            }
         },
         "partial_match" : true,
         "place_id" : "ChIJR477qYqAHTERUEgMRTeSAQE",
         "types" : [ "administrative_area_level_1", "political" ]
      }
   ],
   "status" : "OK"
}
