{
   "results" : [
      {
         "address_components" : [
            {
               "long_name" : "บริษัทไทยน้ำทิพย์จำกัด",
               "short_name" : "บริษัทไทยน้ำทิพย์จำกัด",
               "types" : [ "premise" ]
            },
            {
               "long_name" : "ตำบล พืชอุดม",
               "short_name" : "ตำบล พืชอุดม",
               "types" : [ "locality", "political" ]
            },
            {
               "long_name" : "อำเภอ ลำลูกกา",
               "short_name" : "อ.ลำลูกกา",
               "types" : [ "administrative_area_level_2", "political" ]
            },
            {
               "long_name" : "ปทุมธานี",
               "short_name" : "จ.ปทุมธานี",
               "types" : [ "administrative_area_level_1", "political" ]
            },
            {
               "long_name" : "Thailand",
               "short_name" : "TH",
               "types" : [ "country", "political" ]
            },
            {
               "long_name" : "12150",
               "short_name" : "12150",
               "types" : [ "postal_code" ]
            }
         ],
         "formatted_address" : "บริษัทไทยน้ำทิพย์จำกัด ตำบล พืชอุดม อำเภอ ลำลูกกา ปทุมธานี 12150, Thailand",
         "geometry" : {
            "bounds" : {
               "northeast" : {
                  "lat" : 13.994632,
                  "lng" : 100.8966074
               },
               "southwest" : {
                  "lat" : 13.9935059,
                  "lng" : 100.8959986
               }
            },
            "location" : {
               "lat" : 13.9940284,
               "lng" : 100.8962215
            },
            "location_type" : "ROOFTOP",
            "viewport" : {
               "northeast" : {
                  "lat" : 13.9954179302915,
                  "lng" : 100.8976519802915
               },
               "southwest" : {
                  "lat" : 13.9927199697085,
                  "lng" : 100.8949540197085
               }
            }
         },
         "place_id" : "ChIJxSBYWdN1HTERfibK9nJWvPw",
         "types" : [ "premise" ]
      }
   ],
   "status" : "OK"
}
