{
   "results" : [
      {
         "address_components" : [
            {
               "long_name" : "Hua Mak",
               "short_name" : "Hua Mak",
               "types" : [ "route" ]
            },
            {
               "long_name" : "Khwaeng Hua Mak",
               "short_name" : "Khwaeng Hua Mak",
               "types" : [ "sublocality_level_2", "sublocality", "political" ]
            },
            {
               "long_name" : "Khet Bang Kapi",
               "short_name" : "Khet Bang Kapi",
               "types" : [ "sublocality_level_1", "sublocality", "political" ]
            },
            {
               "long_name" : "Bangkok",
               "short_name" : "Bangkok",
               "types" : [ "locality", "political" ]
            },
            {
               "long_name" : "Krung Thep Maha Nakhon",
               "short_name" : "Krung Thep Maha Nakhon",
               "types" : [ "administrative_area_level_1", "political" ]
            },
            {
               "long_name" : "Thailand",
               "short_name" : "TH",
               "types" : [ "country", "political" ]
            },
            {
               "long_name" : "10240",
               "short_name" : "10240",
               "types" : [ "postal_code" ]
            }
         ],
         "formatted_address" : "Hua Mak, Khwaeng Hua Mak, Khet Bang Kapi, Krung Thep Maha Nakhon 10240, Thailand",
         "geometry" : {
            "bounds" : {
               "northeast" : {
                  "lat" : 13.7660415,
                  "lng" : 100.6647664
               },
               "southwest" : {
                  "lat" : 13.7620769,
                  "lng" : 100.6571496
               }
            },
            "location" : {
               "lat" : 13.7641238,
               "lng" : 100.6610791
            },
            "location_type" : "GEOMETRIC_CENTER",
            "viewport" : {
               "northeast" : {
                  "lat" : 13.7660415,
                  "lng" : 100.6647664
               },
               "southwest" : {
                  "lat" : 13.7620769,
                  "lng" : 100.6571496
               }
            }
         },
         "partial_match" : true,
         "place_id" : "ChIJmwxXN4NhHTERwrNb3gtVjjI",
         "types" : [ "route" ]
      }
   ],
   "status" : "OK"
}
