{
   "results" : [
      {
         "address_components" : [
            {
               "long_name" : "Surat Thani",
               "short_name" : "จ.สุราษฎร์ธานี",
               "types" : [ "administrative_area_level_1", "political" ]
            },
            {
               "long_name" : "Thailand",
               "short_name" : "TH",
               "types" : [ "country", "political" ]
            }
         ],
         "formatted_address" : "Surat Thani, Thailand",
         "geometry" : {
            "bounds" : {
               "northeast" : {
                  "lat" : 10.1262814,
                  "lng" : 100.0906337
               },
               "southwest" : {
                  "lat" : 8.3008059,
                  "lng" : 98.44308839999999
               }
            },
            "location" : {
               "lat" : 9.138238899999999,
               "lng" : 99.3217483
            },
            "location_type" : "APPROXIMATE",
            "viewport" : {
               "northeast" : {
                  "lat" : 9.803719299999999,
                  "lng" : 100.0906337
               },
               "southwest" : {
                  "lat" : 8.3008059,
                  "lng" : 98.44308839999999
               }
            }
         },
         "partial_match" : true,
         "place_id" : "ChIJz22WBHADVDARwEw2LLwjAgE",
         "types" : [ "administrative_area_level_1", "political" ]
      }
   ],
   "status" : "OK"
}
