{
   "results" : [
      {
         "address_components" : [
            {
               "long_name" : "เมืองทองธานีโครงการป๊อปปูล่าคอนโด",
               "short_name" : "เมืองทองธานีโครงการป๊อปปูล่าคอนโด",
               "types" : [ "route" ]
            },
            {
               "long_name" : "Tambon Ban Mai",
               "short_name" : "Tambon Ban Mai",
               "types" : [ "sublocality_level_1", "sublocality", "political" ]
            },
            {
               "long_name" : "Pak Kret",
               "short_name" : "Pak Kret",
               "types" : [ "locality", "political" ]
            },
            {
               "long_name" : "Amphoe Pak Kret",
               "short_name" : "อ.ปากเกร็ด",
               "types" : [ "administrative_area_level_2", "political" ]
            },
            {
               "long_name" : "Chang Wat Nonthaburi",
               "short_name" : "จ.นนทบุรี",
               "types" : [ "administrative_area_level_1", "political" ]
            },
            {
               "long_name" : "Thailand",
               "short_name" : "TH",
               "types" : [ "country", "political" ]
            },
            {
               "long_name" : "11120",
               "short_name" : "11120",
               "types" : [ "postal_code" ]
            }
         ],
         "formatted_address" : "เมืองทองธานีโครงการป๊อปปูล่าคอนโด Tambon Ban Mai, Amphoe Pak Kret, Chang Wat Nonthaburi 11120, Thailand",
         "geometry" : {
            "bounds" : {
               "northeast" : {
                  "lat" : 13.9134351,
                  "lng" : 100.5575239
               },
               "southwest" : {
                  "lat" : 13.9073543,
                  "lng" : 100.5512828
               }
            },
            "location" : {
               "lat" : 13.9106426,
               "lng" : 100.5543543
            },
            "location_type" : "GEOMETRIC_CENTER",
            "viewport" : {
               "northeast" : {
                  "lat" : 13.9134351,
                  "lng" : 100.5575239
               },
               "southwest" : {
                  "lat" : 13.9073543,
                  "lng" : 100.5512828
               }
            }
         },
         "partial_match" : true,
         "place_id" : "ChIJu1BGlwyD4jARVP_GHVTfkis",
         "types" : [ "route" ]
      }
   ],
   "status" : "OK"
}
