{
   "results" : [
      {
         "address_components" : [
            {
               "long_name" : "พงษ์-พยุงอพาร์ทเมนท์",
               "short_name" : "พงษ์-พยุงอพาร์ทเมนท์",
               "types" : [ "point_of_interest", "establishment" ]
            },
            {
               "long_name" : "ตำบล หนองไม้แดง",
               "short_name" : "ตำบล หนองไม้แดง",
               "types" : [ "locality", "political" ]
            },
            {
               "long_name" : "อำเภอเมืองชลบุรี",
               "short_name" : "อำเภอเมืองชลบุรี",
               "types" : [ "administrative_area_level_2", "political" ]
            },
            {
               "long_name" : "ชลบุรี",
               "short_name" : "จ.ชลบุรี",
               "types" : [ "administrative_area_level_1", "political" ]
            },
            {
               "long_name" : "Thailand",
               "short_name" : "TH",
               "types" : [ "country", "political" ]
            },
            {
               "long_name" : "20000",
               "short_name" : "20000",
               "types" : [ "postal_code" ]
            }
         ],
         "formatted_address" : "พงษ์-พยุงอพาร์ทเมนท์ ตำบล หนองไม้แดง อำเภอเมืองชลบุรี ชลบุรี 20000, Thailand",
         "geometry" : {
            "location" : {
               "lat" : 13.4000902,
               "lng" : 101.010299
            },
            "location_type" : "APPROXIMATE",
            "viewport" : {
               "northeast" : {
                  "lat" : 13.4014391802915,
                  "lng" : 101.0116479802915
               },
               "southwest" : {
                  "lat" : 13.3987412197085,
                  "lng" : 101.0089500197085
               }
            }
         },
         "partial_match" : true,
         "place_id" : "ChIJhSO1SnE2HTERfs1P5iZPojI",
         "types" : [ "point_of_interest", "establishment" ]
      }
   ],
   "status" : "OK"
}
