{
   "results" : [
      {
         "address_components" : [
            {
               "long_name" : "Hua Hin",
               "short_name" : "Hua Hin",
               "types" : [ "locality", "political" ]
            },
            {
               "long_name" : "Hua Hin District",
               "short_name" : "Hua Hin District",
               "types" : [ "administrative_area_level_2", "political" ]
            },
            {
               "long_name" : "Prachuap Khiri Khan",
               "short_name" : "จ.ประจวบคีรีขันธ์",
               "types" : [ "administrative_area_level_1", "political" ]
            },
            {
               "long_name" : "Thailand",
               "short_name" : "TH",
               "types" : [ "country", "political" ]
            }
         ],
         "formatted_address" : "Hua Hin, Hua Hin District, Prachuap Khiri Khan, Thailand",
         "geometry" : {
            "bounds" : {
               "northeast" : {
                  "lat" : 12.6350512,
                  "lng" : 99.9654307
               },
               "southwest" : {
                  "lat" : 12.5475699,
                  "lng" : 99.91610449999999
               }
            },
            "location" : {
               "lat" : 12.5683747,
               "lng" : 99.9576888
            },
            "location_type" : "APPROXIMATE",
            "viewport" : {
               "northeast" : {
                  "lat" : 12.6350512,
                  "lng" : 99.9654307
               },
               "southwest" : {
                  "lat" : 12.5475699,
                  "lng" : 99.91610449999999
               }
            }
         },
         "partial_match" : true,
         "place_id" : "ChIJEXKZAPSq_TARYBI4LLwjAgQ",
         "types" : [ "locality", "political" ]
      }
   ],
   "status" : "OK"
}
