{
   "results" : [
      {
         "address_components" : [
            {
               "long_name" : "Wang Noi",
               "short_name" : "Wang Noi",
               "types" : [ "natural_feature", "establishment" ]
            },
            {
               "long_name" : "Wang Noi",
               "short_name" : "Wang Noi",
               "types" : [ "locality", "political" ]
            },
            {
               "long_name" : "Wang Noi District",
               "short_name" : "อ.วังน้อย",
               "types" : [ "administrative_area_level_2", "political" ]
            },
            {
               "long_name" : "Phra Nakhon Si Ayutthaya",
               "short_name" : "จ.พระนครศรีอยุธยา",
               "types" : [ "administrative_area_level_1", "political" ]
            },
            {
               "long_name" : "Thailand",
               "short_name" : "TH",
               "types" : [ "country", "political" ]
            },
            {
               "long_name" : "13170",
               "short_name" : "13170",
               "types" : [ "postal_code" ]
            }
         ],
         "formatted_address" : "Wang Noi, Wang Noi, Wang Noi District, Phra Nakhon Si Ayutthaya 13170, Thailand",
         "geometry" : {
            "bounds" : {
               "northeast" : {
                  "lat" : 14.2146453,
                  "lng" : 100.7210765
               },
               "southwest" : {
                  "lat" : 14.199398,
                  "lng" : 100.6961387
               }
            },
            "location" : {
               "lat" : 14.2070217,
               "lng" : 100.7086076
            },
            "location_type" : "APPROXIMATE",
            "viewport" : {
               "northeast" : {
                  "lat" : 14.2178382,
                  "lng" : 100.724615
               },
               "southwest" : {
                  "lat" : 14.1962047,
                  "lng" : 100.6926002
               }
            }
         },
         "partial_match" : true,
         "place_id" : "ChIJe6uRSHWGHTERYL9Z0UVhnd8",
         "types" : [ "natural_feature", "establishment" ]
      }
   ],
   "status" : "OK"
}
