{
   "results" : [
      {
         "address_components" : [
            {
               "long_name" : "Nakhon Si Thammarat",
               "short_name" : "จ.นครศรีธรรมราช",
               "types" : [ "administrative_area_level_1", "political" ]
            },
            {
               "long_name" : "Thailand",
               "short_name" : "TH",
               "types" : [ "country", "political" ]
            }
         ],
         "formatted_address" : "Nakhon Si Thammarat, Thailand",
         "geometry" : {
            "bounds" : {
               "northeast" : {
                  "lat" : 9.3273438,
                  "lng" : 100.336324
               },
               "southwest" : {
                  "lat" : 7.8380614,
                  "lng" : 99.2344681
               }
            },
            "location" : {
               "lat" : 8.4303975,
               "lng" : 99.96312189999999
            },
            "location_type" : "APPROXIMATE",
            "viewport" : {
               "northeast" : {
                  "lat" : 9.3273438,
                  "lng" : 100.336324
               },
               "southwest" : {
                  "lat" : 7.8380614,
                  "lng" : 99.2344681
               }
            }
         },
         "partial_match" : true,
         "place_id" : "ChIJi1amohUBUzAR8gJfvEMI4zQ",
         "types" : [ "administrative_area_level_1", "political" ]
      }
   ],
   "status" : "OK"
}
