{
   "results" : [
      {
         "address_components" : [
            {
               "long_name" : "Samut Sakhon",
               "short_name" : "จ.สมุทรสาคร",
               "types" : [ "administrative_area_level_1", "political" ]
            },
            {
               "long_name" : "Thailand",
               "short_name" : "TH",
               "types" : [ "country", "political" ]
            }
         ],
         "formatted_address" : "Samut Sakhon, Thailand",
         "geometry" : {
            "bounds" : {
               "northeast" : {
                  "lat" : 13.721126,
                  "lng" : 100.4201172
               },
               "southwest" : {
                  "lat" : 13.4250416,
                  "lng" : 100.0269286
               }
            },
            "location" : {
               "lat" : 13.5475216,
               "lng" : 100.2743956
            },
            "location_type" : "APPROXIMATE",
            "viewport" : {
               "northeast" : {
                  "lat" : 13.721126,
                  "lng" : 100.4201172
               },
               "southwest" : {
                  "lat" : 13.4250416,
                  "lng" : 100.0269286
               }
            }
         },
         "partial_match" : true,
         "place_id" : "ChIJWQJASRK44jARGGWC2nURVAo",
         "types" : [ "administrative_area_level_1", "political" ]
      }
   ],
   "status" : "OK"
}
