{
   "results" : [
      {
         "address_components" : [
            {
               "long_name" : "ร้านขายไม้ยูคา",
               "short_name" : "ร้านขายไม้ยูคา",
               "types" : [ "premise" ]
            },
            {
               "long_name" : "ตำบล คลองหก",
               "short_name" : "ตำบล คลองหก",
               "types" : [ "locality", "political" ]
            },
            {
               "long_name" : "อำเภอ คลองหลวง",
               "short_name" : "อ. คลองหลวง",
               "types" : [ "administrative_area_level_2", "political" ]
            },
            {
               "long_name" : "ปทุมธานี",
               "short_name" : "จ.ปทุมธานี",
               "types" : [ "administrative_area_level_1", "political" ]
            },
            {
               "long_name" : "Thailand",
               "short_name" : "TH",
               "types" : [ "country", "political" ]
            },
            {
               "long_name" : "12120",
               "short_name" : "12120",
               "types" : [ "postal_code" ]
            }
         ],
         "formatted_address" : "ร้านขายไม้ยูคา ตำบล คลองหก อำเภอ คลองหลวง ปทุมธานี 12120, Thailand",
         "geometry" : {
            "bounds" : {
               "northeast" : {
                  "lat" : 14.0968562,
                  "lng" : 100.7321552
               },
               "southwest" : {
                  "lat" : 14.096804,
                  "lng" : 100.7320564
               }
            },
            "location" : {
               "lat" : 14.0968291,
               "lng" : 100.7320909
            },
            "location_type" : "ROOFTOP",
            "viewport" : {
               "northeast" : {
                  "lat" : 14.0981790802915,
                  "lng" : 100.7334547802915
               },
               "southwest" : {
                  "lat" : 14.0954811197085,
                  "lng" : 100.7307568197085
               }
            }
         },
         "partial_match" : true,
         "place_id" : "ChIJ65scCcqDHTERFY7UlKUUHu8",
         "types" : [ "premise" ]
      }
   ],
   "status" : "OK"
}
