{
   "results" : [
      {
         "address_components" : [
            {
               "long_name" : "Ratchaburi",
               "short_name" : "จ.ราชบุรี",
               "types" : [ "administrative_area_level_1", "political" ]
            },
            {
               "long_name" : "Thailand",
               "short_name" : "TH",
               "types" : [ "country", "political" ]
            }
         ],
         "formatted_address" : "Ratchaburi, Thailand",
         "geometry" : {
            "bounds" : {
               "northeast" : {
                  "lat" : 13.9449264,
                  "lng" : 100.0728342
               },
               "southwest" : {
                  "lat" : 13.148458,
                  "lng" : 99.1634857
               }
            },
            "location" : {
               "lat" : 13.5282893,
               "lng" : 99.8134211
            },
            "location_type" : "APPROXIMATE",
            "viewport" : {
               "northeast" : {
                  "lat" : 13.9449264,
                  "lng" : 100.0728342
               },
               "southwest" : {
                  "lat" : 13.148458,
                  "lng" : 99.1634857
               }
            }
         },
         "partial_match" : true,
         "place_id" : "ChIJR_N3z9gd4zARglXbp8AaPus",
         "types" : [ "administrative_area_level_1", "political" ]
      }
   ],
   "status" : "OK"
}
