{
   "results" : [
      {
         "address_components" : [
            {
               "long_name" : "Loei",
               "short_name" : "จ.เลย",
               "types" : [ "administrative_area_level_1", "political" ]
            },
            {
               "long_name" : "Thailand",
               "short_name" : "TH",
               "types" : [ "country", "political" ]
            }
         ],
         "formatted_address" : "Loei, Thailand",
         "geometry" : {
            "bounds" : {
               "northeast" : {
                  "lat" : 18.2198926,
                  "lng" : 102.1557095
               },
               "southwest" : {
                  "lat" : 16.753525,
                  "lng" : 100.8329086
               }
            },
            "location" : {
               "lat" : 17.4860232,
               "lng" : 101.7223002
            },
            "location_type" : "APPROXIMATE",
            "viewport" : {
               "northeast" : {
                  "lat" : 18.2198926,
                  "lng" : 102.1557095
               },
               "southwest" : {
                  "lat" : 16.753525,
                  "lng" : 100.8329086
               }
            }
         },
         "partial_match" : true,
         "place_id" : "ChIJSQQQcBolITERIEreyM9pBAE",
         "types" : [ "administrative_area_level_1", "political" ]
      }
   ],
   "status" : "OK"
}
