{
   "results" : [
      {
         "address_components" : [
            {
               "long_name" : "Rattanathibet Housing",
               "short_name" : "Rattanathibet Housing",
               "types" : [ "neighborhood", "political" ]
            },
            {
               "long_name" : "Bang Rak Phatthana",
               "short_name" : "Bang Rak Phatthana",
               "types" : [ "sublocality_level_1", "sublocality", "political" ]
            },
            {
               "long_name" : "Bang Bua Thong",
               "short_name" : "Bang Bua Thong",
               "types" : [ "locality", "political" ]
            },
            {
               "long_name" : "Bang Bua Thong District",
               "short_name" : "อ.บางบัวทอง",
               "types" : [ "administrative_area_level_2", "political" ]
            },
            {
               "long_name" : "Nonthaburi",
               "short_name" : "จ.นนทบุรี",
               "types" : [ "administrative_area_level_1", "political" ]
            },
            {
               "long_name" : "Thailand",
               "short_name" : "TH",
               "types" : [ "country", "political" ]
            },
            {
               "long_name" : "11110",
               "short_name" : "11110",
               "types" : [ "postal_code" ]
            }
         ],
         "formatted_address" : "Rattanathibet Housing, Bang Bua Thong, Bang Bua Thong District, Nonthaburi 11110, Thailand",
         "geometry" : {
            "location" : {
               "lat" : 13.881942,
               "lng" : 100.410872
            },
            "location_type" : "APPROXIMATE",
            "viewport" : {
               "northeast" : {
                  "lat" : 13.8927738,
                  "lng" : 100.4268794
               },
               "southwest" : {
                  "lat" : 13.8711097,
                  "lng" : 100.3948646
               }
            }
         },
         "partial_match" : true,
         "place_id" : "ChIJo3iJT9mP4jARVE0KQNVVkwA",
         "types" : [ "neighborhood", "political" ]
      }
   ],
   "status" : "OK"
}
