{
   "results" : [
      {
         "address_components" : [
            {
               "long_name" : "Khon Kaen",
               "short_name" : "จ.ขอนแก่น",
               "types" : [ "administrative_area_level_1", "political" ]
            },
            {
               "long_name" : "Thailand",
               "short_name" : "TH",
               "types" : [ "country", "political" ]
            }
         ],
         "formatted_address" : "Khon Kaen, Thailand",
         "geometry" : {
            "bounds" : {
               "northeast" : {
                  "lat" : 17.094254,
                  "lng" : 103.1846
               },
               "southwest" : {
                  "lat" : 15.6330732,
                  "lng" : 101.7500362
               }
            },
            "location" : {
               "lat" : 16.4419355,
               "lng" : 102.8359921
            },
            "location_type" : "APPROXIMATE",
            "viewport" : {
               "northeast" : {
                  "lat" : 17.094254,
                  "lng" : 103.1846
               },
               "southwest" : {
                  "lat" : 15.6330732,
                  "lng" : 101.7500362
               }
            }
         },
         "partial_match" : true,
         "place_id" : "ChIJg8oWN29tIjERAEreyM9pBAE",
         "types" : [ "administrative_area_level_1", "political" ]
      }
   ],
   "status" : "OK"
}
