{
   "results" : [
      {
         "address_components" : [
            {
               "long_name" : "Uttaradit",
               "short_name" : "จ.อุตรดิตถ์",
               "types" : [ "administrative_area_level_1", "political" ]
            },
            {
               "long_name" : "Thailand",
               "short_name" : "TH",
               "types" : [ "country", "political" ]
            }
         ],
         "formatted_address" : "Uttaradit, Thailand",
         "geometry" : {
            "bounds" : {
               "northeast" : {
                  "lat" : 18.3801428,
                  "lng" : 101.1926066
               },
               "southwest" : {
                  "lat" : 17.1624157,
                  "lng" : 99.89631199999999
               }
            },
            "location" : {
               "lat" : 17.6200886,
               "lng" : 100.0992942
            },
            "location_type" : "APPROXIMATE",
            "viewport" : {
               "northeast" : {
                  "lat" : 18.3801428,
                  "lng" : 101.1926066
               },
               "southwest" : {
                  "lat" : 17.1624157,
                  "lng" : 99.89631199999999
               }
            }
         },
         "partial_match" : true,
         "place_id" : "ChIJnaS9Gk-r2DAR0EqK-sVGAwE",
         "types" : [ "administrative_area_level_1", "political" ]
      }
   ],
   "status" : "OK"
}
