{
   "results" : [
      {
         "address_components" : [
            {
               "long_name" : "Kanchanaburi",
               "short_name" : "จ.กาญจนบุรี",
               "types" : [ "administrative_area_level_1", "political" ]
            },
            {
               "long_name" : "Thailand",
               "short_name" : "TH",
               "types" : [ "country", "political" ]
            }
         ],
         "formatted_address" : "Kanchanaburi, Thailand",
         "geometry" : {
            "bounds" : {
               "northeast" : {
                  "lat" : 15.662279,
                  "lng" : 99.887722
               },
               "southwest" : {
                  "lat" : 13.7261095,
                  "lng" : 98.18100389999999
               }
            },
            "location" : {
               "lat" : 14.0227797,
               "lng" : 99.53281149999999
            },
            "location_type" : "APPROXIMATE",
            "viewport" : {
               "northeast" : {
                  "lat" : 15.662279,
                  "lng" : 99.887722
               },
               "southwest" : {
                  "lat" : 13.7261095,
                  "lng" : 98.18100389999999
               }
            }
         },
         "partial_match" : true,
         "place_id" : "ChIJndZBBtUa4zAREj5xkg68l08",
         "types" : [ "administrative_area_level_1", "political" ]
      }
   ],
   "status" : "OK"
}
