{
   "results" : [
      {
         "address_components" : [
            {
               "long_name" : "Likit Center Building",
               "short_name" : "Likit Center Building",
               "types" : [ "premise" ]
            },
            {
               "long_name" : "Hua Mak",
               "short_name" : "Hua Mak",
               "types" : [ "sublocality_level_2", "sublocality", "political" ]
            },
            {
               "long_name" : "Bang Kapi",
               "short_name" : "Bang Kapi",
               "types" : [ "sublocality_level_1", "sublocality", "political" ]
            },
            {
               "long_name" : "Bangkok",
               "short_name" : "Bangkok",
               "types" : [ "locality", "political" ]
            },
            {
               "long_name" : "Bangkok",
               "short_name" : "Bangkok",
               "types" : [ "administrative_area_level_1", "political" ]
            },
            {
               "long_name" : "Thailand",
               "short_name" : "TH",
               "types" : [ "country", "political" ]
            },
            {
               "long_name" : "10240",
               "short_name" : "10240",
               "types" : [ "postal_code" ]
            }
         ],
         "formatted_address" : "Likit Center Building, Hua Mak, Bang Kapi, Bangkok 10240, Thailand",
         "geometry" : {
            "bounds" : {
               "northeast" : {
                  "lat" : 13.7530835,
                  "lng" : 100.6202781
               },
               "southwest" : {
                  "lat" : 13.752832,
                  "lng" : 100.6201447
               }
            },
            "location" : {
               "lat" : 13.7529798,
               "lng" : 100.6202271
            },
            "location_type" : "ROOFTOP",
            "viewport" : {
               "northeast" : {
                  "lat" : 13.7543067302915,
                  "lng" : 100.6215603802915
               },
               "southwest" : {
                  "lat" : 13.7516087697085,
                  "lng" : 100.6188624197085
               }
            }
         },
         "partial_match" : true,
         "place_id" : "ChIJYYqD-t9hHTERWkN7bjP5_kQ",
         "types" : [ "premise" ]
      }
   ],
   "status" : "OK"
}
