{
   "results" : [
      {
         "address_components" : [
            {
               "long_name" : "Ratchadaphisek",
               "short_name" : "Ratchadaphisek",
               "types" : [ "point_of_interest", "establishment" ]
            },
            {
               "long_name" : "Din Daeng",
               "short_name" : "Din Daeng",
               "types" : [ "sublocality_level_2", "sublocality", "political" ]
            },
            {
               "long_name" : "Din Daeng",
               "short_name" : "Din Daeng",
               "types" : [ "sublocality_level_1", "sublocality", "political" ]
            },
            {
               "long_name" : "Bangkok",
               "short_name" : "Bangkok",
               "types" : [ "locality", "political" ]
            },
            {
               "long_name" : "Bangkok",
               "short_name" : "Bangkok",
               "types" : [ "administrative_area_level_1", "political" ]
            },
            {
               "long_name" : "Thailand",
               "short_name" : "TH",
               "types" : [ "country", "political" ]
            },
            {
               "long_name" : "10400",
               "short_name" : "10400",
               "types" : [ "postal_code" ]
            }
         ],
         "formatted_address" : "Ratchadaphisek, Din Daeng, Din Daeng, Bangkok 10400, Thailand",
         "geometry" : {
            "location" : {
               "lat" : 13.799176,
               "lng" : 100.5744252
            },
            "location_type" : "APPROXIMATE",
            "viewport" : {
               "northeast" : {
                  "lat" : 13.8005249802915,
                  "lng" : 100.5757741802915
               },
               "southwest" : {
                  "lat" : 13.7978270197085,
                  "lng" : 100.5730762197085
               }
            }
         },
         "partial_match" : true,
         "place_id" : "ChIJ12YKMzWc4jAR-wXDfSLfeX0",
         "types" : [
            "subway_station",
            "transit_station",
            "point_of_interest",
            "establishment"
         ]
      }
   ],
   "status" : "OK"
}
