{
   "results" : [
      {
         "address_components" : [
            {
               "long_name" : "Lopburi",
               "short_name" : "จ.ลพบุรี",
               "types" : [ "administrative_area_level_1", "political" ]
            },
            {
               "long_name" : "Thailand",
               "short_name" : "TH",
               "types" : [ "country", "political" ]
            }
         ],
         "formatted_address" : "Lopburi, Thailand",
         "geometry" : {
            "bounds" : {
               "northeast" : {
                  "lat" : 15.7481383,
                  "lng" : 101.4136046
               },
               "southwest" : {
                  "lat" : 14.6550888,
                  "lng" : 100.4293391
               }
            },
            "location" : {
               "lat" : 14.7995081,
               "lng" : 100.6533706
            },
            "location_type" : "APPROXIMATE",
            "viewport" : {
               "northeast" : {
                  "lat" : 15.7481383,
                  "lng" : 101.4136046
               },
               "southwest" : {
                  "lat" : 14.6550888,
                  "lng" : 100.4293391
               }
            }
         },
         "partial_match" : true,
         "place_id" : "ChIJ1Y7ZWv3_4TAR2iPvC4f2UuM",
         "types" : [ "administrative_area_level_1", "political" ]
      }
   ],
   "status" : "OK"
}
