{
   "results" : [
      {
         "address_components" : [
            {
               "long_name" : "Rayong",
               "short_name" : "จ.ระยอง",
               "types" : [ "administrative_area_level_1", "political" ]
            },
            {
               "long_name" : "Thailand",
               "short_name" : "TH",
               "types" : [ "country", "political" ]
            }
         ],
         "formatted_address" : "Rayong, Thailand",
         "geometry" : {
            "bounds" : {
               "northeast" : {
                  "lat" : 13.163471,
                  "lng" : 101.8312551
               },
               "southwest" : {
                  "lat" : 12.5130282,
                  "lng" : 100.984673
               }
            },
            "location" : {
               "lat" : 12.707434,
               "lng" : 101.1473517
            },
            "location_type" : "APPROXIMATE",
            "viewport" : {
               "northeast" : {
                  "lat" : 13.163471,
                  "lng" : 101.8312551
               },
               "southwest" : {
                  "lat" : 12.5130282,
                  "lng" : 100.984673
               }
            }
         },
         "partial_match" : true,
         "place_id" : "ChIJIT_DODj8AjERiEAlWu8e-8A",
         "types" : [ "administrative_area_level_1", "political" ]
      }
   ],
   "status" : "OK"
}
