{
   "results" : [
      {
         "address_components" : [
            {
               "long_name" : "Satitkun Mansion",
               "short_name" : "Satitkun Mansion",
               "types" : [ "point_of_interest", "establishment" ]
            },
            {
               "long_name" : "รัชดาภิเษก",
               "short_name" : "รัชดาภิเษก",
               "types" : [ "route" ]
            },
            {
               "long_name" : "Khwaeng Din Daeng",
               "short_name" : "Khwaeng Din Daeng",
               "types" : [ "sublocality_level_2", "sublocality", "political" ]
            },
            {
               "long_name" : "Khet Din Daeng",
               "short_name" : "Khet Din Daeng",
               "types" : [ "sublocality_level_1", "sublocality", "political" ]
            },
            {
               "long_name" : "Bangkok",
               "short_name" : "Bangkok",
               "types" : [ "locality", "political" ]
            },
            {
               "long_name" : "Krung Thep Maha Nakhon",
               "short_name" : "Krung Thep Maha Nakhon",
               "types" : [ "administrative_area_level_1", "political" ]
            },
            {
               "long_name" : "Thailand",
               "short_name" : "TH",
               "types" : [ "country", "political" ]
            },
            {
               "long_name" : "10400",
               "short_name" : "10400",
               "types" : [ "postal_code" ]
            }
         ],
         "formatted_address" : "Satitkun Mansion, รัชดาภิเษก Khwaeng Din Daeng, Khet Din Daeng, Krung Thep Maha Nakhon 10400, Thailand",
         "geometry" : {
            "location" : {
               "lat" : 13.781311,
               "lng" : 100.5725299
            },
            "location_type" : "APPROXIMATE",
            "viewport" : {
               "northeast" : {
                  "lat" : 13.7826599802915,
                  "lng" : 100.5738788802915
               },
               "southwest" : {
                  "lat" : 13.7799620197085,
                  "lng" : 100.5711809197085
               }
            }
         },
         "partial_match" : true,
         "place_id" : "ChIJI4a0_Cqc4jARQRPPAJ6AGts",
         "types" : [ "point_of_interest", "establishment" ]
      }
   ],
   "status" : "OK"
}
