{
   "results" : [
      {
         "address_components" : [
            {
               "long_name" : "Lat Krabang",
               "short_name" : "Lat Krabang",
               "types" : [ "point_of_interest", "establishment" ]
            },
            {
               "long_name" : "Lat Krabang",
               "short_name" : "Lat Krabang",
               "types" : [ "sublocality_level_2", "sublocality", "political" ]
            },
            {
               "long_name" : "Lat Krabang",
               "short_name" : "Lat Krabang",
               "types" : [ "sublocality_level_1", "sublocality", "political" ]
            },
            {
               "long_name" : "Bangkok",
               "short_name" : "Bangkok",
               "types" : [ "locality", "political" ]
            },
            {
               "long_name" : "Bangkok",
               "short_name" : "Bangkok",
               "types" : [ "administrative_area_level_1", "political" ]
            },
            {
               "long_name" : "Thailand",
               "short_name" : "TH",
               "types" : [ "country", "political" ]
            },
            {
               "long_name" : "10520",
               "short_name" : "10520",
               "types" : [ "postal_code" ]
            }
         ],
         "formatted_address" : "Lat Krabang, Lat Krabang, Lat Krabang, Bangkok 10520, Thailand",
         "geometry" : {
            "location" : {
               "lat" : 13.7277339,
               "lng" : 100.7486314
            },
            "location_type" : "APPROXIMATE",
            "viewport" : {
               "northeast" : {
                  "lat" : 13.7290828802915,
                  "lng" : 100.7499803802915
               },
               "southwest" : {
                  "lat" : 13.7263849197085,
                  "lng" : 100.7472824197085
               }
            }
         },
         "partial_match" : true,
         "place_id" : "ChIJjXMi0v1mHTERRar2VNbSkY8",
         "types" : [
            "subway_station",
            "transit_station",
            "point_of_interest",
            "establishment"
         ]
      },
      {
         "address_components" : [
            {
               "long_name" : "Lat Krabang",
               "short_name" : "Lat Krabang",
               "types" : [ "natural_feature", "establishment" ]
            },
            {
               "long_name" : "Thailand",
               "short_name" : "TH",
               "types" : [ "country", "political" ]
            }
         ],
         "formatted_address" : "Lat Krabang, Thailand",
         "geometry" : {
            "bounds" : {
               "northeast" : {
                  "lat" : 13.7244319,
                  "lng" : 100.8607137
               },
               "southwest" : {
                  "lat" : 13.6295162,
                  "lng" : 100.7088363
               }
            },
            "location" : {
               "lat" : 13.6769741,
               "lng" : 100.784775
            },
            "location_type" : "APPROXIMATE",
            "viewport" : {
               "northeast" : {
                  "lat" : 13.7244319,
                  "lng" : 100.8607137
               },
               "southwest" : {
                  "lat" : 13.6295162,
                  "lng" : 100.7088363
               }
            }
         },
         "partial_match" : true,
         "place_id" : "ChIJO2p05ANnHTERXY5rmHC0y0I",
         "types" : [ "natural_feature", "establishment" ]
      },
      {
         "address_components" : [
            {
               "long_name" : "Lat Krabang",
               "short_name" : "Lat Krabang",
               "types" : [ "route" ]
            },
            {
               "long_name" : "Khwaeng Khum Thong",
               "short_name" : "Khwaeng Khum Thong",
               "types" : [ "sublocality_level_2", "sublocality", "political" ]
            },
            {
               "long_name" : "Khet Lat Krabang",
               "short_name" : "Khet Lat Krabang",
               "types" : [ "sublocality_level_1", "sublocality", "political" ]
            },
            {
               "long_name" : "Bangkok",
               "short_name" : "Bangkok",
               "types" : [ "locality", "political" ]
            },
            {
               "long_name" : "Krung Thep Maha Nakhon",
               "short_name" : "Krung Thep Maha Nakhon",
               "types" : [ "administrative_area_level_1", "political" ]
            },
            {
               "long_name" : "Thailand",
               "short_name" : "TH",
               "types" : [ "country", "political" ]
            },
            {
               "long_name" : "10520",
               "short_name" : "10520",
               "types" : [ "postal_code" ]
            }
         ],
         "formatted_address" : "Lat Krabang, Khwaeng Khum Thong, Khet Lat Krabang, Krung Thep Maha Nakhon 10520, Thailand",
         "geometry" : {
            "location" : {
               "lat" : 13.7023929,
               "lng" : 100.8427237
            },
            "location_type" : "GEOMETRIC_CENTER",
            "viewport" : {
               "northeast" : {
                  "lat" : 13.7037418802915,
                  "lng" : 100.8440726802915
               },
               "southwest" : {
                  "lat" : 13.7010439197085,
                  "lng" : 100.8413747197085
               }
            }
         },
         "partial_match" : true,
         "place_id" : "ChIJw-WTDEtoHTERugTfL0cSMg0",
         "types" : [ "route" ]
      },
      {
         "address_components" : [
            {
               "long_name" : "ซอย ลาดกระบัง",
               "short_name" : "ซอย ลาดกระบัง",
               "types" : [ "route" ]
            },
            {
               "long_name" : "Khwaeng Lat Krabang",
               "short_name" : "Khwaeng Lat Krabang",
               "types" : [ "sublocality_level_2", "sublocality", "political" ]
            },
            {
               "long_name" : "Khet Lat Krabang",
               "short_name" : "Khet Lat Krabang",
               "types" : [ "sublocality_level_1", "sublocality", "political" ]
            },
            {
               "long_name" : "Bangkok",
               "short_name" : "Bangkok",
               "types" : [ "locality", "political" ]
            },
            {
               "long_name" : "Krung Thep Maha Nakhon",
               "short_name" : "Krung Thep Maha Nakhon",
               "types" : [ "administrative_area_level_1", "political" ]
            },
            {
               "long_name" : "Thailand",
               "short_name" : "TH",
               "types" : [ "country", "political" ]
            },
            {
               "long_name" : "10520",
               "short_name" : "10520",
               "types" : [ "postal_code" ]
            }
         ],
         "formatted_address" : "ซอย ลาดกระบัง Khwaeng Lat Krabang, Khet Lat Krabang, Krung Thep Maha Nakhon 10520, Thailand",
         "geometry" : {
            "bounds" : {
               "northeast" : {
                  "lat" : 13.7235742,
                  "lng" : 100.7417376
               },
               "southwest" : {
                  "lat" : 13.7219252,
                  "lng" : 100.7289676
               }
            },
            "location" : {
               "lat" : 13.7232982,
               "lng" : 100.7392635
            },
            "location_type" : "GEOMETRIC_CENTER",
            "viewport" : {
               "northeast" : {
                  "lat" : 13.7240986802915,
                  "lng" : 100.7417376
               },
               "southwest" : {
                  "lat" : 13.7214007197085,
                  "lng" : 100.7289676
               }
            }
         },
         "partial_match" : true,
         "place_id" : "ChIJfXrSqh9nHTERTgUF9DBfslU",
         "types" : [ "route" ]
      },
      {
         "address_components" : [
            {
               "long_name" : "Thanon Lat Krabang",
               "short_name" : "Thanon Lat Krabang",
               "types" : [ "route" ]
            },
            {
               "long_name" : "Bangkok",
               "short_name" : "Bangkok",
               "types" : [ "locality", "political" ]
            },
            {
               "long_name" : "Krung Thep Maha Nakhon",
               "short_name" : "Krung Thep Maha Nakhon",
               "types" : [ "administrative_area_level_1", "political" ]
            },
            {
               "long_name" : "Thailand",
               "short_name" : "TH",
               "types" : [ "country", "political" ]
            },
            {
               "long_name" : "10520",
               "short_name" : "10520",
               "types" : [ "postal_code" ]
            }
         ],
         "formatted_address" : "Thanon Lat Krabang, Krung Thep Maha Nakhon 10520, Thailand",
         "geometry" : {
            "bounds" : {
               "northeast" : {
                  "lat" : 13.7254188,
                  "lng" : 100.7905154
               },
               "southwest" : {
                  "lat" : 13.7175292,
                  "lng" : 100.7091353
               }
            },
            "location" : {
               "lat" : 13.7226363,
               "lng" : 100.7495712
            },
            "location_type" : "GEOMETRIC_CENTER",
            "viewport" : {
               "northeast" : {
                  "lat" : 13.7254188,
                  "lng" : 100.7905154
               },
               "southwest" : {
                  "lat" : 13.7175292,
                  "lng" : 100.7091353
               }
            }
         },
         "partial_match" : true,
         "place_id" : "ChIJEy4mZgFnHTERYfDknJtIbIk",
         "types" : [ "route" ]
      }
   ],
   "status" : "OK"
}
