{
   "results" : [
      {
         "address_components" : [
            {
               "long_name" : "Chumphon",
               "short_name" : "จ.ชุมพร",
               "types" : [ "administrative_area_level_1", "political" ]
            },
            {
               "long_name" : "Thailand",
               "short_name" : "TH",
               "types" : [ "country", "political" ]
            }
         ],
         "formatted_address" : "Chumphon, Thailand",
         "geometry" : {
            "bounds" : {
               "northeast" : {
                  "lat" : 11.0336752,
                  "lng" : 99.51950739999999
               },
               "southwest" : {
                  "lat" : 9.600966,
                  "lng" : 98.6268518
               }
            },
            "location" : {
               "lat" : 10.4930496,
               "lng" : 99.18001989999999
            },
            "location_type" : "APPROXIMATE",
            "viewport" : {
               "northeast" : {
                  "lat" : 11.0336752,
                  "lng" : 99.51950739999999
               },
               "southwest" : {
                  "lat" : 9.600966,
                  "lng" : 98.6268518
               }
            }
         },
         "partial_match" : true,
         "place_id" : "ChIJ1VjorI4FVjAR4Ew2LLwjAgE",
         "types" : [ "administrative_area_level_1", "political" ]
      }
   ],
   "status" : "OK"
}
