{
   "results" : [
      {
         "address_components" : [
            {
               "long_name" : "Udon Thani",
               "short_name" : "จ.อุดรธานี",
               "types" : [ "administrative_area_level_1", "political" ]
            },
            {
               "long_name" : "Thailand",
               "short_name" : "TH",
               "types" : [ "country", "political" ]
            }
         ],
         "formatted_address" : "Udon Thani, Thailand",
         "geometry" : {
            "bounds" : {
               "northeast" : {
                  "lat" : 18.0863234,
                  "lng" : 103.6683832
               },
               "southwest" : {
                  "lat" : 16.8083403,
                  "lng" : 102.0151634
               }
            },
            "location" : {
               "lat" : 17.4138413,
               "lng" : 102.7872325
            },
            "location_type" : "APPROXIMATE",
            "viewport" : {
               "northeast" : {
                  "lat" : 18.0863234,
                  "lng" : 103.6683832
               },
               "southwest" : {
                  "lat" : 16.8083403,
                  "lng" : 102.0151634
               }
            }
         },
         "partial_match" : true,
         "place_id" : "ChIJhUO3g153IzEROAErH0LKwjY",
         "types" : [ "administrative_area_level_1", "political" ]
      }
   ],
   "status" : "OK"
}
