{
   "results" : [
      {
         "address_components" : [
            {
               "long_name" : "Prem Ruethai Village",
               "short_name" : "Prem Ruethai Village",
               "types" : [ "neighborhood", "political" ]
            },
            {
               "long_name" : "Prawet",
               "short_name" : "Prawet",
               "types" : [ "sublocality_level_2", "sublocality", "political" ]
            },
            {
               "long_name" : "Prawet",
               "short_name" : "Prawet",
               "types" : [ "sublocality_level_1", "sublocality", "political" ]
            },
            {
               "long_name" : "Prawet",
               "short_name" : "Prawet",
               "types" : [ "locality", "political" ]
            },
            {
               "long_name" : "Bangkok",
               "short_name" : "Bangkok",
               "types" : [ "administrative_area_level_1", "political" ]
            },
            {
               "long_name" : "Thailand",
               "short_name" : "TH",
               "types" : [ "country", "political" ]
            },
            {
               "long_name" : "10250",
               "short_name" : "10250",
               "types" : [ "postal_code" ]
            }
         ],
         "formatted_address" : "Prem Ruethai Village, Prawet, Prawet, Bangkok 10250, Thailand",
         "geometry" : {
            "location" : {
               "lat" : 13.728429,
               "lng" : 100.700074
            },
            "location_type" : "APPROXIMATE",
            "viewport" : {
               "northeast" : {
                  "lat" : 13.739268,
                  "lng" : 100.7160814
               },
               "southwest" : {
                  "lat" : 13.7175895,
                  "lng" : 100.6840666
               }
            }
         },
         "partial_match" : true,
         "place_id" : "ChIJS5l7PihhHTERqMvQOcoxQBc",
         "types" : [ "neighborhood", "political" ]
      }
   ],
   "status" : "OK"
}
