{
   "results" : [
      {
         "address_components" : [
            {
               "long_name" : "Chiang Mai",
               "short_name" : "จ.เชียงใหม่",
               "types" : [ "administrative_area_level_1", "political" ]
            },
            {
               "long_name" : "Thailand",
               "short_name" : "TH",
               "types" : [ "country", "political" ]
            }
         ],
         "formatted_address" : "Chiang Mai, Thailand",
         "geometry" : {
            "bounds" : {
               "northeast" : {
                  "lat" : 20.1475012,
                  "lng" : 99.5715955
               },
               "southwest" : {
                  "lat" : 17.2424831,
                  "lng" : 98.0079447
               }
            },
            "location" : {
               "lat" : 18.787747,
               "lng" : 98.99312839999999
            },
            "location_type" : "APPROXIMATE",
            "viewport" : {
               "northeast" : {
                  "lat" : 20.1475012,
                  "lng" : 99.5715955
               },
               "southwest" : {
                  "lat" : 17.2424831,
                  "lng" : 98.0079447
               }
            }
         },
         "partial_match" : true,
         "place_id" : "ChIJQXiZwsjM0DAR1AMlknbhaWo",
         "types" : [ "administrative_area_level_1", "political" ]
      }
   ],
   "status" : "OK"
}
