{
   "results" : [
      {
         "address_components" : [
            {
               "long_name" : "Soi Nimit Mai 13",
               "short_name" : "Soi Nimit Mai 13",
               "types" : [ "route" ]
            },
            {
               "long_name" : "Khwaeng Min Buri",
               "short_name" : "Khwaeng Min Buri",
               "types" : [ "sublocality_level_2", "sublocality", "political" ]
            },
            {
               "long_name" : "Khet Min Buri",
               "short_name" : "Khet Min Buri",
               "types" : [ "sublocality_level_1", "sublocality", "political" ]
            },
            {
               "long_name" : "Bangkok",
               "short_name" : "Bangkok",
               "types" : [ "locality", "political" ]
            },
            {
               "long_name" : "Krung Thep Maha Nakhon",
               "short_name" : "Krung Thep Maha Nakhon",
               "types" : [ "administrative_area_level_1", "political" ]
            },
            {
               "long_name" : "Thailand",
               "short_name" : "TH",
               "types" : [ "country", "political" ]
            },
            {
               "long_name" : "10510",
               "short_name" : "10510",
               "types" : [ "postal_code" ]
            }
         ],
         "formatted_address" : "Soi Nimit Mai 13, Khwaeng Min Buri, Khet Min Buri, Krung Thep Maha Nakhon 10510, Thailand",
         "geometry" : {
            "bounds" : {
               "northeast" : {
                  "lat" : 13.8383256,
                  "lng" : 100.7353019
               },
               "southwest" : {
                  "lat" : 13.836447,
                  "lng" : 100.7296915
               }
            },
            "location" : {
               "lat" : 13.8383256,
               "lng" : 100.7353019
            },
            "location_type" : "GEOMETRIC_CENTER",
            "viewport" : {
               "northeast" : {
                  "lat" : 13.8387352802915,
                  "lng" : 100.7353019
               },
               "southwest" : {
                  "lat" : 13.8360373197085,
                  "lng" : 100.7296915
               }
            }
         },
         "partial_match" : true,
         "place_id" : "ChIJ-ed11epkHTERHWexeZvtdnM",
         "types" : [ "route" ]
      }
   ],
   "status" : "OK"
}
