{
   "results" : [
      {
         "address_components" : [
            {
               "long_name" : "Pran Buri",
               "short_name" : "Pran Buri",
               "types" : [ "natural_feature", "establishment" ]
            },
            {
               "long_name" : "Prachuap Khiri Khan",
               "short_name" : "จ.ประจวบคีรีขันธ์",
               "types" : [ "administrative_area_level_1", "political" ]
            },
            {
               "long_name" : "Thailand",
               "short_name" : "TH",
               "types" : [ "country", "political" ]
            }
         ],
         "formatted_address" : "Pran Buri, Prachuap Khiri Khan, Thailand",
         "geometry" : {
            "bounds" : {
               "northeast" : {
                  "lat" : 12.4803702,
                  "lng" : 99.7940986
               },
               "southwest" : {
                  "lat" : 12.4174888,
                  "lng" : 99.74451880000001
               }
            },
            "location" : {
               "lat" : 12.4607784,
               "lng" : 99.7846002
            },
            "location_type" : "APPROXIMATE",
            "viewport" : {
               "northeast" : {
                  "lat" : 12.4803702,
                  "lng" : 99.7940986
               },
               "southwest" : {
                  "lat" : 12.4174888,
                  "lng" : 99.74451880000001
               }
            }
         },
         "partial_match" : true,
         "place_id" : "ChIJB7gc6NRR_DARBqkVpKoFo4U",
         "types" : [ "natural_feature", "establishment" ]
      }
   ],
   "status" : "OK"
}
