{
   "results" : [
      {
         "address_components" : [
            {
               "long_name" : "Nakhon Sawan",
               "short_name" : "จ.นครสวรรค์",
               "types" : [ "administrative_area_level_1", "political" ]
            },
            {
               "long_name" : "Thailand",
               "short_name" : "TH",
               "types" : [ "country", "political" ]
            }
         ],
         "formatted_address" : "Nakhon Sawan, Thailand",
         "geometry" : {
            "bounds" : {
               "northeast" : {
                  "lat" : 16.1913173,
                  "lng" : 100.8339533
               },
               "southwest" : {
                  "lat" : 15.0514745,
                  "lng" : 99.08603199999999
               }
            },
            "location" : {
               "lat" : 15.6930072,
               "lng" : 100.1225595
            },
            "location_type" : "APPROXIMATE",
            "viewport" : {
               "northeast" : {
                  "lat" : 16.1913173,
                  "lng" : 100.8339533
               },
               "southwest" : {
                  "lat" : 15.0514745,
                  "lng" : 99.08603199999999
               }
            }
         },
         "partial_match" : true,
         "place_id" : "ChIJNVAlmTY-4DARbyjxP-AbA64",
         "types" : [ "administrative_area_level_1", "political" ]
      }
   ],
   "status" : "OK"
}
